<svg xmlns="http://www.w3.org/2000/svg" xmlns:xlink="http://www.w3.org/1999/xlink" width="742" height="320" viewBox="0 0 742 320">
  <defs>
    <linearGradient id="linear-gradient" x1="0.5" y1="-0.227" x2="0.5" y2="0.559" gradientUnits="objectBoundingBox">
      <stop offset="0" stop-color="#dee9f8"/>
      <stop offset="0.683" stop-color="#f7f9fc"/>
      <stop offset="1" stop-color="#f7f9fc"/>
    </linearGradient>
    <clipPath id="clip-Assetss">
      <rect width="742" height="320"/>
    </clipPath>
  </defs>
  <g id="Assetss" clip-path="url(#clip-Assetss)">
    <g id="Group_343" data-name="Group 343" transform="translate(-191.599 -795.218)">
      <ellipse id="Ellipse_22" data-name="Ellipse 22" cx="370.901" cy="131.306" rx="370.901" ry="131.306" transform="translate(191.599 851.387)" fill="url(#linear-gradient)"/>
      <g id="Group_340" data-name="Group 340" transform="translate(155.271 665.377)">
        <g id="Group_340-2" data-name="Group 340" transform="translate(180.327 131.84)">
          <path id="Path_3660" data-name="Path 3660" d="M309.629,222l-4.387-20-6.494,21.439c-28.01,3.39-40.234,12.8-44.964,17.955a85.688,85.688,0,1,0,164.523,2.025C375.849,207.472,309.629,222,309.629,222Zm-4.387,22.879a11.44,11.44,0,1,1-11.44,11.44A11.44,11.44,0,0,1,305.242,244.877Zm30.517,88.732c-24.455,0-44.748-18.461-48.712-41.091H384.47C380.506,315.148,360.213,333.609,335.759,333.609Zm31.417-88.732a11.44,11.44,0,1,1-11.44,11.44A11.44,11.44,0,0,1,367.176,244.877Z" transform="translate(-167.002 -118.438)" fill="none"/>
          <path id="Path_3661" data-name="Path 3661" d="M349.083,180.936a98.921,98.921,0,0,0-17.513,1.586c-.3-12.877-5.538-38.587-40.986-48.19-47.99-13-77.589,27.031-75.258,70.151,1.555,28.753-23.51,33.428-35,22.176,0,0,1.541,15.3,21.179,25.8,16.739,8.951,51.351,11,61.685-45.265,4.806-26.162,31.105-39.567,43.716-16.782a98.743,98.743,0,1,0,42.177-9.479Zm85.681,98.783A85.681,85.681,0,1,1,267.109,254.8c4.73-5.154,16.954-14.565,44.964-17.955l6.494-21.439,4.387,20s66.22-14.527,108.68,21.42a85.522,85.522,0,0,1,7.731,7.414,85.522,85.522,0,0,0-7.731-7.414A85.466,85.466,0,0,1,434.764,279.719Z" transform="translate(-180.327 -131.84)" fill="#454c53"/>
          <path id="Path_3662" data-name="Path 3662" d="M329.829,319.091c24.454,0,44.747-18.461,48.711-41.091H281.117C285.081,300.63,305.374,319.091,329.829,319.091Z" transform="translate(-161.073 -103.919)" fill="#454c53"/>
          <circle id="Ellipse_31" data-name="Ellipse 31" cx="11.44" cy="11.44" r="11.44" transform="matrix(0.775, -0.632, 0.632, 0.775, 122.145, 136.238)" fill="#454c53"/>
          <circle id="Ellipse_32" data-name="Ellipse 32" cx="11.44" cy="11.44" r="11.44" transform="matrix(0.785, -0.619, 0.619, 0.785, 184.107, 135.98)" fill="#454c53"/>
        </g>
        <g id="Group_341" data-name="Group 341" transform="translate(436.062 152.278)">
          <path id="Path_3663" data-name="Path 3663" d="M523.143,193c-29.043,37.238-92.934,51.093-114.672,54.835a85.694,85.694,0,1,0,168.148,8.736C540.9,238.3,523.143,193,523.143,193Zm-.45,53.6a11.44,11.44,0,1,1-11.44,11.44A11.44,11.44,0,0,1,522.693,246.6Zm-61.934,0a11.44,11.44,0,1,1-11.44,11.44A11.44,11.44,0,0,1,460.759,246.6Zm30.967,88.732c-24.454,0-44.747-18.461-48.711-41.091h97.423C536.474,316.868,516.182,335.329,491.726,335.329Z" transform="translate(-392.943 -140.595)" fill="none"/>
          <path id="Path_3664" data-name="Path 3664" d="M538.541,188.4c3.633-7.565,13.667-11.214,13.667-11.214-8.135-2.325-14-.3-17.873,2.381,1.146-9.009-.535-21.723-15.374-30.569,0,0,12.729,15.806,2.262,32.552a98.969,98.969,0,1,0,17.318,6.85ZM493.828,362.122a85.637,85.637,0,0,1-83.256-105.882c21.738-3.742,85.628-17.6,114.672-54.835,0,0,17.76,45.3,53.476,63.571a71.845,71.845,0,0,0,6.959,3.116,71.845,71.845,0,0,1-6.959-3.116,85.548,85.548,0,0,1-84.892,97.146Z" transform="translate(-395.044 -149)" fill="#454c53"/>
          <path id="Path_3665" data-name="Path 3665" d="M485.8,319.091c24.457,0,44.748-18.461,48.712-41.091H437.085C441.049,300.63,461.342,319.091,485.8,319.091Z" transform="translate(-387.013 -124.357)" fill="#454c53"/>
          <circle id="Ellipse_33" data-name="Ellipse 33" cx="11.44" cy="11.44" r="11.44" transform="translate(56.376 106.002)" fill="#454c53"/>
          <circle id="Ellipse_34" data-name="Ellipse 34" cx="11.44" cy="11.44" r="11.44" transform="translate(118.31 106.002)" fill="#454c53"/>
        </g>
      </g>
    </g>
  </g>
</svg>
