<svg xmlns="http://www.w3.org/2000/svg" xmlns:xlink="http://www.w3.org/1999/xlink" width="1125" height="2436" viewBox="0 0 1125 2436">
  <defs>
    <linearGradient id="linear-gradient" x1="-2.179" y1="0.5" x2="-1.179" y2="0.5" gradientUnits="objectBoundingBox">
      <stop offset="0" stop-color="#e3cbba"/>
      <stop offset="0.253" stop-color="#dbbaa1"/>
      <stop offset="0.784" stop-color="#c78e64"/>
      <stop offset="1" stop-color="#bf7c4a"/>
    </linearGradient>
    <linearGradient id="linear-gradient-2" x1="-1.905" y1="0.441" x2="-0.149" y2="0.538" gradientUnits="objectBoundingBox">
      <stop offset="0" stop-color="#ffecdc"/>
      <stop offset="0.238" stop-color="#f6dac3"/>
      <stop offset="0.737" stop-color="#dfac86"/>
      <stop offset="1" stop-color="#d39364"/>
    </linearGradient>
    <linearGradient id="linear-gradient-3" x1="-1.311" y1="-0.397" x2="0.298" y2="0.768" gradientUnits="objectBoundingBox">
      <stop offset="0" stop-color="gray"/>
      <stop offset="0.639" stop-color="#51514c"/>
      <stop offset="1" stop-color="#3c3c35"/>
    </linearGradient>
    <linearGradient id="linear-gradient-4" x1="-1.872" y1="0.5" x2="-0.872" y2="0.5" gradientUnits="objectBoundingBox">
      <stop offset="0" stop-color="#be73de"/>
      <stop offset="1" stop-color="#514eb7"/>
    </linearGradient>
    <linearGradient id="linear-gradient-5" x1="-3.656" y1="0.851" x2="-2.029" y2="0.337" xlink:href="#linear-gradient-3"/>
    <linearGradient id="linear-gradient-6" x1="-0.284" y1="1.096" x2="1.344" y2="0.209" xlink:href="#linear-gradient-3"/>
    <linearGradient id="linear-gradient-7" x1="-0.398" y1="0.5" x2="0.602" y2="0.5" xlink:href="#linear-gradient-4"/>
    <linearGradient id="linear-gradient-8" x1="2.304" y1="1.707" x2="1.783" y2="-0.477" xlink:href="#linear-gradient-2"/>
    <linearGradient id="linear-gradient-9" x1="-12.542" y1="0.5" x2="-11.542" y2="0.5" xlink:href="#linear-gradient-4"/>
    <linearGradient id="linear-gradient-10" x1="-6.263" y1="0.5" x2="-5.264" y2="0.5" xlink:href="#linear-gradient-4"/>
    <linearGradient id="linear-gradient-11" x1="-21.179" y1="0.5" x2="-20.179" y2="0.5" xlink:href="#linear-gradient-4"/>
    <linearGradient id="linear-gradient-12" x1="-25.439" y1="0.5" x2="-24.439" y2="0.5" xlink:href="#linear-gradient-2"/>
    <clipPath id="clip-Splash_Screen_3_1">
      <rect width="1125" height="2436"/>
    </clipPath>
  </defs>
  <g id="Splash_Screen_3_1" data-name="Splash Screen 3 – 1" clip-path="url(#clip-Splash_Screen_3_1)">
    <path id="Path_3668" data-name="Path 3668" d="M19507.262-10364v1277.723s-216.691,196.412-736.736-205.34c-198.816-160.7-387.525-89.277-387.525-89.277V-10364Z" transform="translate(-18383 10224)" fill="#e6eef9"/>
    <g id="Group_807" data-name="Group 807" transform="translate(-23054.584 1467.147)">
      <path id="Vector" d="M0,0H0" transform="translate(23286.135 -48.989)" fill="none" stroke="#fff" stroke-miterlimit="10" stroke-width="2" stroke-dasharray="0 0"/>
      <path id="Vector-2" data-name="Vector" d="M0,0H0" transform="translate(23618.773 -474.027)" fill="none" stroke="#110949" stroke-miterlimit="10" stroke-width="2" stroke-dasharray="0 0"/>
      <g id="Group" transform="translate(23986.51 -928.054)">
        <path id="Vector-3" data-name="Vector" d="M0,0H0" transform="translate(16.17)" fill="none" stroke="#fff" stroke-linecap="round" stroke-linejoin="round" stroke-miterlimit="10" stroke-width="3.729" stroke-dasharray="0 0"/>
      </g>
      <g id="Group-2" data-name="Group" transform="translate(23868.254 -1129.746)">
        <path id="Vector-4" data-name="Vector" d="M96.248,1.772l-.688,1.2C64.6-6.835,28.645,8.142,10.583,39.987-7.651,72.349-1.63,111.081,23.312,132.6l-.688,1.033,10.665,6.025c33.2,18.763,76.548,4.476,97.19-31.846,20.642-36.149,10.493-80.733-22.706-99.5Z" transform="translate(37.773 32.022)" fill="#bd7306"/>
        <g id="Group-3" data-name="Group" transform="translate(38.036 32.246)">
          <path id="Vector-5" data-name="Vector" d="M0,1.377,110.779,64.036l1.2-1.2L.688,0Z" transform="translate(6.709 60.937)" fill="#c15500"/>
          <path id="Vector-6" data-name="Vector" d="M.344,2.066l88.073,49.92c.688-.172,1.2-.516,1.892-.689L0,0C.172.689.172,1.377.344,2.066Z" transform="translate(0.86 91.577)" fill="#c15500"/>
          <path id="Vector-7" data-name="Vector" d="M0,0C.516.861.86,1.721,1.376,2.582l57.8,32.706a18.683,18.683,0,0,0,3.1-.172Z" transform="translate(7.569 112.579)" fill="#c15500"/>
          <path id="Vector-8" data-name="Vector" d="M84.977,48.715l-.516-2.066L2.064,0A9.693,9.693,0,0,1,0,.689Z" transform="translate(54.186 2.755)" fill="#c15500"/>
          <path id="Vector-9" data-name="Vector" d="M0,1.721l105.1,59.56a9.543,9.543,0,0,0,1.376-1.033L.172,0A5.86,5.86,0,0,1,0,1.721Z" transform="translate(0 74.019)" fill="#c15500"/>
          <path id="Vector-10" data-name="Vector" d="M0,.861,103.382,59.388V57.666L1.548,0A6.971,6.971,0,0,1,0,.861Z" transform="translate(37.673 10.329)" fill="#c15500"/>
          <path id="Vector-11" data-name="Vector" d="M0,0,51.433,29.091c-.688-1.033-1.376-2.066-2.064-2.926L3.612.172A25.387,25.387,0,0,0,0,0Z" transform="translate(78.267 0)" fill="#c15500"/>
          <path id="Vector-12" data-name="Vector" d="M0,1.377,113.015,65.413c.344-.516.516-.861.86-1.377L.688,0Z" transform="translate(14.105 48.027)" fill="#c15500"/>
          <path id="Vector-13" data-name="Vector" d="M0,1.377,112.844,65.241a3.461,3.461,0,0,1,.688-1.377L.688,0Z" transform="translate(21.33 34.945)" fill="#c15500"/>
          <path id="Vector-14" data-name="Vector" d="M0,1.377,110.435,63.863c.172-.516.172-1.033.344-1.549L.688,0Z" transform="translate(28.727 22.034)" fill="#c15500"/>
        </g>
        <path id="Vector-15" data-name="Vector" d="M151.112,68.819c0,38.008-33.828,68.819-75.556,68.819S0,106.826,0,68.819,33.828,0,75.556,0s75.556,30.811,75.556,68.819Z" transform="translate(0 131.564) rotate(-60.533)" fill="#fb9c09"/>
        <path id="Vector-16" data-name="Vector" d="M61.73,140.6h0a61.249,61.249,0,0,1-30.011-7.816c-14.2-8-24.542-21.453-29.126-37.89A71.822,71.822,0,0,1,.572,66.639,77.856,77.856,0,0,1,37.3,9.958,68.5,68.5,0,0,1,72.409,0a60.41,60.41,0,0,1,30.007,7.814c15.218,8.57,25.848,23.135,29.933,41.012s1.149,36.922-8.258,53.665a77.01,77.01,0,0,1-27.257,28.153A68.493,68.493,0,0,1,61.73,140.6Zm9.957-130.58c-21.545,0-42,12.479-53.388,32.564a64.278,64.278,0,0,0-6.376,48.478c3.926,14.154,12.788,25.732,24.954,32.6a51.534,51.534,0,0,0,25.741,6.743c21.544,0,42-12.477,53.388-32.564a64.278,64.278,0,0,0,6.376-48.478c-3.926-14.154-12.788-25.732-24.954-32.6A51.524,51.524,0,0,0,71.688,10.022Z" transform="translate(29.886 29.424)" fill="#c15500"/>
        <path id="Vector-17" data-name="Vector" d="M65.059,148.037h0a63.45,63.45,0,0,1-31.6-8.261C17.414,130.707,6.2,115.347,1.9,96.525c-4.3-18.8-1.219-38.84,8.688-56.419A81.3,81.3,0,0,1,39.254,10.5,71.954,71.954,0,0,1,76.177,0a63.495,63.495,0,0,1,51.982,26.643,68.983,68.983,0,0,1,11.114,24.869,78.83,78.83,0,0,1-8.624,56.419,81.307,81.307,0,0,1-28.669,29.6A71.947,71.947,0,0,1,65.059,148.037ZM75.4,10.512v0c-22.719,0-44.261,13.122-56.22,34.24C10.269,60.5,7.821,79.108,12.464,95.82a56.105,56.105,0,0,0,26.329,34.315,55.129,55.129,0,0,0,27.043,7.043c22.713,0,44.253-13.118,56.214-34.239,8.912-15.74,11.361-34.352,6.718-51.064a56.113,56.113,0,0,0-26.33-34.319A54.366,54.366,0,0,0,75.4,10.515Z" transform="translate(26.423 25.707)" fill="#d78102"/>
        <g id="Group-4" data-name="Group" transform="translate(69.687 63.052)">
          <path id="Vector-18" data-name="Vector" d="M18.062,61.461,15.826,65.42a5.248,5.248,0,0,1-2.752,2.41,4.812,4.812,0,0,1-3.44-.344,4.751,4.751,0,0,1-2.064-2.754,4.636,4.636,0,0,1,.688-3.615l2.064-3.787a29.621,29.621,0,0,1-5.849-5.508A23.747,23.747,0,0,1,.516,45.279,6.762,6.762,0,0,1,0,42.87a5.13,5.13,0,0,1,.86-2.41,5.709,5.709,0,0,1,2.752-2.582,3.269,3.269,0,0,1,3.1,0,7.847,7.847,0,0,1,2.408,2.754,26.641,26.641,0,0,0,3.956,5.853,18.775,18.775,0,0,0,4.988,3.959c2.58,1.377,4.817,2.066,6.709,1.721a6.145,6.145,0,0,0,4.472-3.271,4.538,4.538,0,0,0,.516-3.615,9.71,9.71,0,0,0-1.892-3.443c-.86-1.033-2.236-2.582-4.128-4.476-2.58-2.754-4.817-4.992-6.365-7.058a15,15,0,0,1-2.924-7.23c-.344-2.754.344-5.681,2.236-8.951A16.155,16.155,0,0,1,25.8,6.376a19.634,19.634,0,0,1,12.557.172L40.6,2.589A5.248,5.248,0,0,1,43.348.179a4.812,4.812,0,0,1,3.44.344,3.684,3.684,0,0,1,2.064,2.754,4.636,4.636,0,0,1-.688,3.615L45.929,10.68a27.277,27.277,0,0,1,8.085,10.845,6.079,6.079,0,0,1,.516,2.41,5.13,5.13,0,0,1-.86,2.41,5.709,5.709,0,0,1-2.752,2.582,3.269,3.269,0,0,1-3.1,0,3.5,3.5,0,0,1-1.2-1.033A12.35,12.35,0,0,1,45.413,26a29.215,29.215,0,0,0-3.1-5.336,15.273,15.273,0,0,0-4.644-3.787A9.3,9.3,0,0,0,31.135,15.5a6.129,6.129,0,0,0-4.644,3.271,5.381,5.381,0,0,0-.516,3.959,10.431,10.431,0,0,0,1.892,3.615,48.322,48.322,0,0,0,4.3,4.476,67.3,67.3,0,0,1,6.193,6.886,14.194,14.194,0,0,1,2.752,7.058,13.464,13.464,0,0,1-2.236,8.779A12.963,12.963,0,0,1,30.447,61.8,19.191,19.191,0,0,1,18.062,61.461Z" transform="translate(0 0)" fill="#ffeaca"/>
        </g>
      </g>
      <g id="Group-5" data-name="Group" transform="translate(23080.799 -816.559)">
        <path id="Vector-19" data-name="Vector" d="M45.345,0l-.172.861C23.842,1.721,4.921,18.935.792,42.69c-4.128,24.1,8.257,46.822,28.383,54.568L29,98.119,37.088,99.5C61.858,103.8,85.6,85.209,90.241,58.183s-11.7-52.33-36.3-56.634Z" transform="translate(16.123 7.439)" fill="#bd7306"/>
        <g id="Group-6" data-name="Group" transform="translate(18.12 9.85)">
          <path id="Vector-20" data-name="Vector" d="M0,1.033,82.568,15.148l.516-1.033L.172,0Z" transform="translate(1.376 54.223)" fill="#c15500"/>
          <path id="Vector-21" data-name="Vector" d="M.688,1.205,66.4,12.394c.344-.344.688-.516,1.032-.861L0,0A4.316,4.316,0,0,0,.688,1.205Z" transform="translate(4.3 74.708)" fill="#c15500"/>
          <path id="Vector-22" data-name="Vector" d="M0,0,1.376,1.377l43,7.4a16.756,16.756,0,0,1,1.892-.861Z" transform="translate(13.246 86.241)" fill="#c15500"/>
          <path id="Vector-23" data-name="Vector" d="M63.3,11.705a5.231,5.231,0,0,0-.86-1.2L1.032,0A4.561,4.561,0,0,0,0,.861Z" transform="translate(17.89 7.402)" fill="#c15500"/>
          <path id="Vector-24" data-name="Vector" d="M.344,1.033,78.784,14.46a3.754,3.754,0,0,1,.688-.861L0,0C.172.344.172.689.344,1.033Z" transform="translate(0 63.865)" fill="#c15500"/>
          <path id="Vector-25" data-name="Vector" d="M0,.861,77.064,14.115c-.172-.344-.172-.689-.344-1.033L.688,0A3.754,3.754,0,0,1,0,.861Z" transform="translate(9.289 15.838)" fill="#c15500"/>
          <path id="Vector-26" data-name="Vector" d="M0,.689,38.36,7.23c-.688-.516-1.2-.861-1.892-1.377L2.236,0A11.12,11.12,0,0,0,0,.689Z" transform="translate(31.995)" fill="#c15500"/>
          <path id="Vector-27" data-name="Vector" d="M0,1.033l84.289,14.46c0-.344.172-.689.172-1.033L.172,0Z" transform="translate(3.096 44.583)" fill="#c15500"/>
          <path id="Vector-28" data-name="Vector" d="M0,1.033l84.117,14.46V14.46L.172,0Z" transform="translate(4.816 34.945)" fill="#c15500"/>
          <path id="Vector-29" data-name="Vector" d="M0,1.033,82.224,15.148c0-.344-.172-.689-.172-1.033L.172,0Z" transform="translate(6.365 25.132)" fill="#c15500"/>
        </g>
        <path id="Vector-30" data-name="Vector" d="M99.494,45.414c0,25.081-22.273,45.414-49.747,45.414S0,70.495,0,45.414,22.273,0,49.747,0,99.494,20.332,99.494,45.414Z" transform="translate(0 98.067) rotate(-80.283)" fill="#fb9c09"/>
        <path id="Vector-31" data-name="Vector" d="M41.965,94.245a40.1,40.1,0,0,1-6.615-.56,41.408,41.408,0,0,1-27.8-18.871A48.98,48.98,0,0,1,.774,39.806,49.5,49.5,0,0,1,16.282,11.2,42.447,42.447,0,0,1,44.555,0a39.8,39.8,0,0,1,6.619.557A40.886,40.886,0,0,1,78.847,19.3a49.721,49.721,0,0,1,6.9,35.138A49.5,49.5,0,0,1,70.242,83.045a42.448,42.448,0,0,1-28.274,11.2v0ZM44.279,6.783C26.27,6.783,10.155,21.423,6.8,40.837a42.206,42.206,0,0,0,5.826,30.039,35.164,35.164,0,0,0,23.759,16.1,33.848,33.848,0,0,0,5.738.492c18.009,0,34.1-14.642,37.438-34.058A42.214,42.214,0,0,0,73.73,23.366a35.165,35.165,0,0,0-23.761-16.1A33.552,33.552,0,0,0,44.279,6.783Z" transform="translate(9.949 9.465)" fill="#c15500"/>
        <path id="Vector-32" data-name="Vector" d="M44.243,99.189a42.263,42.263,0,0,1-7.155-.622A42.86,42.86,0,0,1,9.235,80.706,49.75,49.75,0,0,1,1.293,62.758,53.655,53.655,0,0,1,17.1,11.815,44.412,44.412,0,0,1,46.79,0a41.944,41.944,0,0,1,7.157.619A42.8,42.8,0,0,1,81.819,18.414,49.59,49.59,0,0,1,89.76,36.387a53.475,53.475,0,0,1,.483,20.867A52.678,52.678,0,0,1,73.934,87.372,44.412,44.412,0,0,1,44.246,99.186v0Zm2.5-92.027c-18.977,0-35.92,15.467-39.412,35.976A44.427,44.427,0,0,0,13.48,74.7,36.969,36.969,0,0,0,38.465,91.682a35.181,35.181,0,0,0,5.953.51c18.977,0,35.941-15.463,39.46-35.969a44.427,44.427,0,0,0-6.151-31.567A36.979,36.979,0,0,0,52.741,7.676,35.433,35.433,0,0,0,46.742,7.163Z" transform="translate(7.521 6.99)" fill="#d78102"/>
        <g id="Group-7" data-name="Group" transform="translate(37.428 30.441)">
          <path id="Vector-33" data-name="Vector" d="M15.439,43.616l-.516,2.926a2.823,2.823,0,0,1-1.2,2.066,2.607,2.607,0,0,1-2.236.516,2.82,2.82,0,0,1-1.892-1.2,2.931,2.931,0,0,1-.344-2.41l.516-2.754a23.9,23.9,0,0,1-4.816-2.066,17.512,17.512,0,0,1-3.956-3.1,3.045,3.045,0,0,1-.86-1.377,2.92,2.92,0,0,1,0-1.721,4.114,4.114,0,0,1,1.2-2.238c.688-.516,1.2-.861,1.892-.689a4.326,4.326,0,0,1,2.064,1.2,23.029,23.029,0,0,0,3.784,2.754A15.4,15.4,0,0,0,13.03,36.9a8.046,8.046,0,0,0,4.644-.344,3.706,3.706,0,0,0,2.064-3.1,2.612,2.612,0,0,0-.516-2.238A9.018,9.018,0,0,0,17.331,29.5c-.86-.516-1.892-1.033-3.44-1.894a50.981,50.981,0,0,1-5.5-2.926,10.48,10.48,0,0,1-3.44-3.787,9.644,9.644,0,0,1-.688-6.025A10.763,10.763,0,0,1,8.214,8.155a12.483,12.483,0,0,1,7.913-2.582l.516-2.926a2.824,2.824,0,0,1,1.2-2.066A2.607,2.607,0,0,1,20.083.065a2.481,2.481,0,0,1,1.892,1.2,3.788,3.788,0,0,1,.344,2.41L21.8,6.606A16.207,16.207,0,0,1,29.2,11.6a6.04,6.04,0,0,1,.86,1.377,2.92,2.92,0,0,1,0,1.721,4.114,4.114,0,0,1-1.2,2.238c-.688.516-1.2.861-1.892.689a2.444,2.444,0,0,1-1.032-.344c-.344-.172-.688-.516-1.2-.861a17.322,17.322,0,0,0-3.1-2.582,11.281,11.281,0,0,0-3.612-1.377,5.932,5.932,0,0,0-4.3.516,3.957,3.957,0,0,0-2.064,3.1,3.244,3.244,0,0,0,.516,2.582,7.335,7.335,0,0,0,2.064,1.894,32.7,32.7,0,0,0,3.612,1.894,46.468,46.468,0,0,1,5.333,2.926,8.913,8.913,0,0,1,3.268,3.787,9.644,9.644,0,0,1,.688,6.025,10.857,10.857,0,0,1-3.956,5.853A13.866,13.866,0,0,1,15.439,43.616Z" transform="translate(0 0)" fill="#ffeaca"/>
        </g>
      </g>
      <path id="Vector-34" data-name="Vector" d="M17.222,34.786C11.425,29.169,2.558,27.539,0,27.176c2.728-.906,11.084-3.442,16.2-9.6C21.144,11.776,23.02,3.08,23.7,0c1.023,3.08,3.41,11.052,8.185,16.125,5.8,5.979,14.324,8.153,17.393,9.059-2.728.906-10.231,2.718-15.006,7.609C28.136,39.315,26.26,49.28,25.748,52.36,25.066,49.642,23.19,40.583,17.222,34.786Z" transform="translate(24002.68 -1129.745)" fill="#fff"/>
      <path id="Vector-35" data-name="Vector" d="M15.092,28.687C9.882,24.054,2.336,22.807,0,22.451c2.515-.891,9.7-2.851,14.194-8.018C18.506,9.622,20.123,2.495,20.662,0c.9,2.495,2.875,9.087,7.187,13.185C32.879,18,40.425,19.956,43.12,20.669c-2.336.713-8.983,2.316-13.3,6.415-5.39,5.345-7.007,13.72-7.366,16.036C21.919,40.982,20.123,33.32,15.092,28.687Z" transform="translate(23082.855 -760.466)" fill="#fff"/>
      <g id="Group-8" data-name="Group" transform="translate(23924.359 -184.025)">
        <path id="Vector-36" data-name="Vector" d="M161.459,27.481l-1.548.861C134.452-1.439,88.351-9.185,49.475,11.988c-39.22,21.345-57.8,64.9-45.929,102.595l-1.376.688,7.053,13.083c21.846,40.28,75.344,53.535,119.552,29.436,44.209-23.927,62.27-76.085,40.252-116.366Z" transform="translate(37.98 45.278)" fill="#bd7306"/>
        <g id="Group-9" data-name="Group" transform="translate(38.258 45.215)">
          <path id="Vector-37" data-name="Vector" d="M0,.861,73.28,135.645c.688-.172,1.2-.344,1.892-.516L1.72,0Z" transform="translate(30.962 31.501)" fill="#c15500"/>
          <path id="Vector-38" data-name="Vector" d="M0,2.238l58.314,107.07c.86.172,1.548.344,2.408.516L.86,0A11.957,11.957,0,0,0,0,2.238Z" transform="translate(5.676 58.7)" fill="#c15500"/>
          <path id="Vector-39" data-name="Vector" d="M.172,0A24.261,24.261,0,0,0,0,3.443L38.188,73.676a14.984,14.984,0,0,0,3.1,1.894Z" transform="translate(0 84.348)" fill="#c15500"/>
          <path id="Vector-40" data-name="Vector" d="M56.25,103.283c.344-.861.516-1.721.86-2.41L2.58.689C1.72.516.86.172,0,0Z" transform="translate(117.143 2.582)" fill="#c15500"/>
          <path id="Vector-41" data-name="Vector" d="M0,1.721l69.667,127.9a8.369,8.369,0,0,0,2.064-.172L1.2,0C.86.516.344,1.2,0,1.721Z" transform="translate(15.827 40.28)" fill="#c15500"/>
          <path id="Vector-42" data-name="Vector" d="M0,0,68.291,125.661c.344-.689.86-1.2,1.2-1.893L2.236,0Z" transform="translate(95.298)" fill="#c15500"/>
          <path id="Vector-43" data-name="Vector" d="M0,0,34.06,62.658c0-1.377-.172-2.926-.172-4.3L3.44,2.582C2.236,1.721,1.2.861,0,0Z" transform="translate(144.15 14.289)" fill="#c15500"/>
          <path id="Vector-44" data-name="Vector" d="M0,.861,74.828,138.4a8.032,8.032,0,0,0,1.72-.861L1.72,0Z" transform="translate(46.789 22.895)" fill="#c15500"/>
          <path id="Vector-45" data-name="Vector" d="M0,.861,74.656,138.227l1.548-1.033L1.72,0Z" transform="translate(62.613 14.289)" fill="#c15500"/>
          <path id="Vector-46" data-name="Vector" d="M0,.861,72.935,135.129l1.376-1.377L1.72,0Z" transform="translate(78.44 5.68)" fill="#c15500"/>
        </g>
        <path id="Vector-47" data-name="Vector" d="M182.024,82.958c0,45.816-40.747,82.957-91.012,82.957S0,128.774,0,82.958,40.747,0,91.012,0s91.012,37.141,91.012,82.958Z" transform="translate(0 87.073) rotate(-28.578)" fill="#fb9c09"/>
        <path id="Vector-48" data-name="Vector" d="M78.331,161.452h-.008A83.4,83.4,0,0,1,37.98,151.264,72.863,72.863,0,0,1,.161,91.856,78.659,78.659,0,0,1,4.426,60.973C11.624,40.1,26.767,22.511,47.065,11.44A92.127,92.127,0,0,1,91.151,0a83.382,83.382,0,0,1,40.343,10.186A72.852,72.852,0,0,1,169.313,69.62a78.846,78.846,0,0,1-4.266,30.923,86.76,86.76,0,0,1-16.038,27.986,92.509,92.509,0,0,1-26.6,21.482A92.1,92.1,0,0,1,78.331,161.452ZM90.188,11.634v0A79.2,79.2,0,0,0,52.4,21.425C16.528,41.1,1.866,83.646,19.714,116.274c11.349,20.748,34.2,33.638,59.648,33.639a79.266,79.266,0,0,0,37.716-9.712c35.867-19.674,50.528-62.224,32.682-94.849-11.376-20.8-34.2-33.716-59.568-33.716Z" transform="translate(34.886 35.496)" fill="#c15500"/>
        <path id="Vector-49" data-name="Vector" d="M82.349,169.867h0a87.631,87.631,0,0,1-42.48-10.742A77.383,77.383,0,0,1,9.28,128.4,76.3,76.3,0,0,1,.16,96.612,82.781,82.781,0,0,1,4.7,64.148a91.856,91.856,0,0,1,16.893-29.43A98.785,98.785,0,0,1,96.018,0,87.62,87.62,0,0,1,138.5,10.741a77.385,77.385,0,0,1,30.588,30.728c9.965,18.229,12.071,39.716,5.931,60.5a90.581,90.581,0,0,1-16.805,31.64,99.5,99.5,0,0,1-75.861,36.257ZM95.112,12.216A82.953,82.953,0,0,0,55.381,22.533,81.17,81.17,0,0,0,17.021,67.14C10.506,86,11.911,105.556,20.977,122.2c11.882,21.817,35.875,35.37,62.615,35.372a83.5,83.5,0,0,0,39.735-10.242,81.17,81.17,0,0,0,38.359-44.606c6.515-18.861,5.11-38.415-3.956-55.061C145.821,25.8,121.827,12.214,95.112,12.216Z" transform="translate(30.353 31.288)" fill="#d78102"/>
        <g id="Group-10" data-name="Group" transform="translate(81.134 84.704)">
          <path id="Vector-50" data-name="Vector" d="M13.2,51.055,8.385,53.637a5.95,5.95,0,0,1-4.472.688A5.32,5.32,0,0,1,.644,51.744,5,5,0,0,1,.3,47.612a5.449,5.449,0,0,1,2.924-3.271L7.869,41.76a43.883,43.883,0,0,1-2.58-9.3,26.9,26.9,0,0,1,.172-9.123,5.775,5.775,0,0,1,1.032-2.754A6.936,6.936,0,0,1,8.9,18.693a8.042,8.042,0,0,1,4.472-.861,3.665,3.665,0,0,1,3.1,1.893,10.128,10.128,0,0,1,.688,4.476,34.611,34.611,0,0,0,.344,8.607,25.86,25.86,0,0,0,2.58,7.23c1.72,3.1,3.612,5.164,5.849,6.025a6.729,6.729,0,0,0,6.709-.516,5.736,5.736,0,0,0,2.752-3.271,10.514,10.514,0,0,0,.172-4.648,61.409,61.409,0,0,0-1.376-7.058A68.845,68.845,0,0,1,32.3,19.382a18.645,18.645,0,0,1,1.548-9.123c1.376-3.1,3.956-5.681,7.913-7.746A18.91,18.91,0,0,1,56.034.619,23.541,23.541,0,0,1,68.763,8.881L73.579,6.3a5.95,5.95,0,0,1,4.472-.689A5.32,5.32,0,0,1,81.32,8.193a5.831,5.831,0,0,1,.516,4.131,6.69,6.69,0,0,1-2.924,3.271l-4.644,2.582A32.4,32.4,0,0,1,75.644,34.53a6.577,6.577,0,0,1-1.032,2.754A6.935,6.935,0,0,1,72.2,39.178a8.043,8.043,0,0,1-4.473.861,3.665,3.665,0,0,1-3.1-1.893,7.2,7.2,0,0,1-.688-1.721,6.382,6.382,0,0,1,0-2.582,38.351,38.351,0,0,0,.172-7.574,16.252,16.252,0,0,0-2.236-6.713,12.883,12.883,0,0,0-5.677-5.681,7.56,7.56,0,0,0-6.881.517A6.359,6.359,0,0,0,46.229,18,12.08,12.08,0,0,0,45.885,23a43.977,43.977,0,0,0,1.548,7.4,64.31,64.31,0,0,1,1.892,11.017,16.7,16.7,0,0,1-1.72,8.951,17.336,17.336,0,0,1-7.741,7.574c-4.989,1.721-9.633,2.41-14.278,1.377A24,24,0,0,1,13.2,51.055Z" transform="translate(0)" fill="#ffeaca"/>
        </g>
      </g>
      <path id="Vector-51" data-name="Vector" d="M27.187,51.682C17.715,43.651,4.034,41.9,0,41.381c4.21-1.571,17.189-5.762,24.906-15.016C32.449,17.46,34.9,4.54,35.781,0c1.754,4.365,5.788,16.063,13.681,23.222,9.3,8.381,22.8,11.349,27.538,12.4-4.21,1.4-15.961,4.714-23.153,12.222C44.2,57.619,41.92,72.635,41.219,77,40.166,73.158,36.658,59.714,27.187,51.682Z" transform="translate(23942.172 -125.989)" fill="#fff"/>
      <path id="Vector-52" data-name="Vector" d="M58.519,21.161c0,11.687-13.1,21.161-29.259,21.161S0,32.848,0,21.161,13.1,0,29.259,0,58.519,9.474,58.519,21.161Z" transform="translate(23072.5 -1149.064) rotate(-62.842)" fill="#b4d3fb"/>
      <path id="Vector-53" data-name="Vector" d="M42.318,29.262c0,16.161-9.473,29.262-21.159,29.262S0,45.424,0,29.262,9.473,0,21.159,0,42.318,13.1,42.318,29.262Z" transform="translate(23070.584 -22.279) rotate(-13.401)" fill="#b4d3fb"/>
      <path id="Vector-54" data-name="Vector" d="M69.507,42.855c0,23.668-15.56,42.855-34.754,42.855S0,66.523,0,42.855,15.56,0,34.754,0,69.507,19.187,69.507,42.855Z" transform="matrix(0.865, -0.502, 0.502, 0.865, 23412.863, -1080.546)" fill="#b4d3fb"/>
      <path id="Vector-55" data-name="Vector" d="M70.84,35.42A35.42,35.42,0,1,1,35.42,0,35.42,35.42,0,0,1,70.84,35.42Z" transform="translate(23778.934 -76.709)" fill="#b4d3fb"/>
      <path id="Vector-56" data-name="Vector" d="M70.84,35.42A35.42,35.42,0,1,1,35.42,0,35.42,35.42,0,0,1,70.84,35.42Z" transform="translate(23763.533 -806.666)" fill="#b4d3fb"/>
    </g>
    <g id="Group_813" data-name="Group 813" transform="translate(-55)">
      <ellipse id="Ellipse_60" data-name="Ellipse 60" cx="303.5" cy="50.5" rx="303.5" ry="50.5" transform="translate(95 1380)" fill="#e6eef9" opacity="0.52"/>
      <g id="Group_811" data-name="Group 811" transform="translate(-989.396 -131.88)">
        <path id="Path_4740" data-name="Path 4740" d="M1511.125,862.391l-.561-38.3L1474.2,801.582v65.8Z" fill="url(#linear-gradient)"/>
        <path id="Path_4741" data-name="Path 4741" d="M1471.606,798.2s4.144,31.082,29.01,31.082,37.3,2.073,37.3-22.793,6.217-49.732-10.36-58.021-58.021-10.36-55.948,24.866c0,0-10.361-8.288-10.361,4.145S1461.245,802.343,1471.606,798.2Z" fill="url(#linear-gradient-2)"/>
        <path id="Path_4742" data-name="Path 4742" d="M1471.606,804.416s-64.237-47.66-20.722-80.814,55.948,6.216,95.319-20.722c0,0,37.3,31.082-10.361,51.8,0,0-59.056-7.253-54.912,25.9,0,0-6.216-8.289-16.577-6.217S1468.5,797.163,1471.606,804.416Z" fill="url(#linear-gradient-3)"/>
        <path id="Path_4743" data-name="Path 4743" d="M1574.6,1536.128h-25.022l-60.054-275.247,45.874-145.964,28.359,1.668Z" fill="url(#linear-gradient-4)"/>
        <path id="Path_4744" data-name="Path 4744" d="M1549.793,1535.2l-4.861,15.556a8.645,8.645,0,0,0,8.252,11.223h71.926s1.673-13.389-15.063-16.737a171.834,171.834,0,0,1-31.8-10.042Z" fill="url(#linear-gradient-5)"/>
        <path id="Path_4745" data-name="Path 4745" d="M1414.672,1535.2l-4.861,15.556a8.645,8.645,0,0,0,8.252,11.223h71.926s1.673-13.389-15.064-16.737a171.806,171.806,0,0,1-31.8-10.042Z" fill="url(#linear-gradient-6)"/>
        <path id="Path_4746" data-name="Path 4746" d="M1538.731,1098.235,1425.3,1078.217l-10.009,457.077h28.359Z" fill="url(#linear-gradient-7)"/>
        <g id="Group_810" data-name="Group 810">
          <path id="Path_4747" data-name="Path 4747" d="M1674.134,862.848l-63.354,93.447-37.275-87.107a47.1,47.1,0,0,0-34.658-27.8c-14.857-2.78-34.78-.854-46.824-1.714-12.234-.874-33.762-.413-53.124,5.125a53.394,53.394,0,0,0-37.744,42.719c-6.553,39.5-15.908,104.391-12.559,135.653,5.005,46.709,23.355,120.108,23.355,120.108h26.69l-5-30.027,143.462,5.005L1562.92,988.97l13.808,14.841c4.9,5.3,16.366,13.96,26.133,15.838,10.845,2.085,20.472-6.437,28.882-13.594l58.23-111.53Z" fill="#fe4a49"/>
          <path id="Path_4748" data-name="Path 4748" d="M1438.641,1143.275s5.005,16.682,5.005,21.686-1.668,10.009-5.005,5-1.668,11.677,0,20.018-13.345,13.345-25.022,0,0-46.709,0-46.709Z" fill="url(#linear-gradient-8)"/>
          <path id="Path_4749" data-name="Path 4749" d="M1563.754,988.136V921.41l13.189,82.752Z" opacity="0.1"/>
          <path id="Path_4750" data-name="Path 4750" d="M1433.637,1114.916s-6.673-60.053-5.005-88.412,11.677-70.063,11.677-70.063l6.673,158.475Z" opacity="0.1"/>
        </g>
      </g>
      <g id="Group_812" data-name="Group 812" transform="translate(240)">
        <path id="Path_4734" data-name="Path 4734" d="M1674.134,862.848s29.3-22.965,38.013-13.462,8.711,32.469,4.751,34.052-25.341,10.295-26.925,11.087S1674.134,862.848,1674.134,862.848Z" transform="translate(-1229.396 -131.88)" fill="#f7c4a3"/>
        <path id="Path_4735" data-name="Path 4735" d="M1696.025,902.172l20.872-6.8-9.271-61.528-29.789,9.423Z" transform="translate(-1229.396 -131.88)" fill="url(#linear-gradient-9)"/>
        <path id="Path_4736" data-name="Path 4736" d="M1617.046,834.913c7.975,23.153,32.219,21.725,43.161,17.774l16.111-5.776c-4.56-5.319-10.183-15.958-14.9-28.724-4.711-12.919-7.447-24.622-7.6-31.461l-16.11,5.776C1626.771,796.453,1608.041,808.764,1617.046,834.913Z" transform="translate(-1229.396 -131.88)" fill="url(#linear-gradient-10)"/>
        <path id="Path_4737" data-name="Path 4737" d="M1789.151,850.642s-1.126,1.438-7.054-.234c-18.845-5.32-55.321-20.67-117.33,1.52-3.8,1.367-12.007-11.551-18.39-28.877-6.383-17.174-8.511-32.372-4.712-33.74v-.152c62.009-22.19,80.095-56.538,90.886-72.5,1.216-1.824.725-.063,1.637-.975-6.535,8.511-.725,36.842,12.194,71.646C1760.82,825.938,1779.272,854.441,1789.151,850.642Z" transform="translate(-1229.396 -131.88)" fill="#fb9c09"/>
        <path id="Path_4738" data-name="Path 4738" d="M1773.729,773.216c15.652,37.1,22.495,71.8,15.316,77.444-7.154,5.791-25.627-19.771-41.179-56.885-15.652-37.1-22.494-71.8-15.316-77.444C1739.629,710.705,1758.078,736.118,1773.729,773.216Z" transform="translate(-1229.396 -131.88)" fill="#d78102"/>
        <path id="Path_4739" data-name="Path 4739" d="M1766.532,782.644a19.967,19.967,0,0,1-11.292,25.636,10.339,10.339,0,0,1-1.206.483c-3.338-6.615-6.538-13.841-9.441-21.378-1.94-5.278-3.722-10.255-5.2-15.239a15.649,15.649,0,0,1,1.505-.641A19.765,19.765,0,0,1,1766.532,782.644Z" transform="translate(-1229.396 -131.88)" fill="url(#linear-gradient-11)"/>
        <path id="Path_4751" data-name="Path 4751" d="M1720.405,883.438s-8.712,1.584-13.463-5.543-10.3-25.341-3.96-27.717,11.879-5.544,13.463,4.751" transform="translate(-1229.396 -131.88)" fill="url(#linear-gradient-12)"/>
        <path id="Path_4752" data-name="Path 4752" d="M1679.065,859.258s6.552-6.7,9.522-5.913,1.386,3.168,1.386,5.544-8.712,7.127-8.712,7.127Z" transform="translate(-1229.396 -131.88)" fill="#f7c4a3"/>
      </g>
    </g>
  </g>
</svg>
