<svg xmlns="http://www.w3.org/2000/svg" xmlns:xlink="http://www.w3.org/1999/xlink" width="55" height="55" viewBox="0 0 55 55">
  <defs>
    <clipPath id="clip-email_app">
      <rect width="55" height="55"/>
    </clipPath>
  </defs>
  <g id="email_app" data-name="email app" clip-path="url(#clip-email_app)">
    <g id="email" transform="translate(12 12)">
      <g id="email-2" data-name="email" transform="translate(-12 -12)">
        <g id="email-3" data-name="email">
          <rect id="Rectangle_105" data-name="Rectangle 105" width="55" height="55" fill="#595c60" opacity="0"/>
          <path id="Path_5697" data-name="Path 5697" d="M40.86,4h-32A6.858,6.858,0,0,0,2,10.858V33.716a6.858,6.858,0,0,0,6.858,6.858h32a6.858,6.858,0,0,0,6.858-6.858V10.858A6.858,6.858,0,0,0,40.86,4Zm0,4.572L26,18.79a2.286,2.286,0,0,1-2.286,0L8.858,8.572Z" transform="translate(2.572 5.144)" fill="#595c60"/>
        </g>
      </g>
    </g>
  </g>
</svg>
