<svg xmlns="http://www.w3.org/2000/svg" xmlns:xlink="http://www.w3.org/1999/xlink" width="24" height="24" viewBox="0 0 24 24">
  <defs>
    <clipPath id="clip-artt">
      <rect width="24" height="24"/>
    </clipPath>
  </defs>
  <g id="artt" clip-path="url(#clip-artt)">
    <g id="arrow-back" transform="translate(1.258 1.258)">
      <g id="arrow-back-2" data-name="arrow-back">
        <g id="arrow-back-3" data-name="arrow-back">
          <rect id="Rectangle_747" data-name="Rectangle 747" width="23" height="23" transform="translate(22.742 -0.258) rotate(90)" fill="#fff" opacity="0"/>
          <path id="Path_7244" data-name="Path 7244" d="M4.94,10.64H16.088l-3.412-4.1a.941.941,0,1,1,1.448-1.2l4.7,5.64a1.118,1.118,0,0,1,.085.141.119.119,0,0,0,.066.122.9.9,0,0,1,0,.677.119.119,0,0,1-.066.122,1.118,1.118,0,0,1-.085.141l-4.7,5.64a.941.941,0,1,1-1.448-1.2l3.412-4.1H4.94a.94.94,0,0,1,0-1.88Z" transform="translate(-0.315 -0.3)" fill="#fff"/>
        </g>
      </g>
    </g>
  </g>
</svg>
