<svg xmlns="http://www.w3.org/2000/svg" width="192" height="136" viewBox="0 0 576 408">
    <g fill="none" fill-rule="evenodd">
        <g>
            <g>
                <path d="M0 0H576V408H0z" transform="translate(-60 -956) translate(60 956)"/>
                <g>
                    <g fill="#16479D" fill-rule="nonzero">
                        <path d="M.307.258H49.206V2.145H.307zM344.1 16.197c0 .28.07.524.21.769.14.21.314.384.559.524.244.105.49.175.769.175h7.899c.42 0 .734-.07 1.014-.245.244-.14.454-.35.594-.56.14-.244.21-.489.21-.733 0-.28-.07-.525-.21-.77-.14-.244-.35-.454-.594-.593-.245-.14-.595-.245-.979-.245h-6.501V2.53c0-.244-.07-.49-.21-.734-.14-.21-.28-.384-.49-.524-.209-.14-.454-.21-.698-.21-.28 0-.525.07-.77.21-.209.14-.419.314-.558.524-.14.21-.21.49-.21.734v13.667h-.035zm-13.632 0c0 .28.07.524.21.769.14.21.315.384.524.524.21.105.49.175.77.175h7.899c.419 0 .734-.07 1.013-.245.28-.14.455-.35.594-.56.14-.244.21-.489.21-.733 0-.28-.07-.525-.21-.77-.14-.244-.314-.454-.594-.593-.244-.14-.594-.245-.978-.245h-6.502V2.53c0-.244-.07-.49-.21-.734-.14-.21-.314-.384-.524-.524-.21-.14-.454-.21-.699-.21-.28 0-.559.07-.769.21-.21.14-.42.314-.524.524-.14.21-.21.49-.21.734v13.667zm-13.351-4.614l2.936-5.907 2.726 5.907h-5.662zm-2.517 5.243l1.049-2.097h8.842l1.05 2.097c.139.314.349.524.593.664.21.14.49.21.734.21.28 0 .525-.07.77-.21.244-.14.454-.315.593-.49.175-.21.245-.454.28-.733.035-.28-.035-.56-.175-.91L321.59 1.937c-.174-.315-.384-.56-.629-.734-.244-.175-.559-.245-.839-.245-.28 0-.559.105-.838.245-.28.175-.49.42-.63.734l-6.885 13.422c-.14.35-.21.664-.175.943.035.315.105.56.28.804.174.245.384.42.629.56.28.07.594.07.874.035s.524-.105.734-.245c.174-.14.35-.35.489-.63zm-14.785-4.649c.245.35.56.594.874.7.314.104.629.104.944 0 .314-.106.629-.35.908-.7l3.985-5.033v8.843c0 .35.07.664.21.909.14.244.314.42.559.559.245.14.49.175.769.175.28 0 .49-.07.734-.175.21-.14.384-.315.524-.56.14-.244.21-.559.21-.908V2.495c0-.314-.07-.594-.21-.839-.14-.21-.314-.384-.524-.524-.21-.105-.42-.21-.7-.21-.244-.035-.489 0-.698.105-.21.105-.42.21-.594.42l-5.453 7.375-5.278-7.13-.42-.42c-.14-.14-.314-.245-.489-.315-.174-.105-.384-.14-.594-.14-.105 0-.245.035-.384.105-.14.07-.315.14-.49.28-.14.14-.28.315-.384.49-.105.21-.175.489-.175.768v13.492c0 .35.07.664.21.909.14.244.28.42.524.559.21.14.454.175.734.175.28 0 .56-.07.839-.175.245-.14.49-.315.63-.56.139-.244.244-.559.244-.908V7.109l3.495 5.068zm-12.618.7c-.07.558-.245 1.013-.524 1.362-.28.315-.664.594-1.084.734-.454.14-.943.21-1.468.21-.524 0-1.048-.07-1.573-.175-.524-.105-1.048-.28-1.502-.454-.455-.21-.874-.42-1.189-.63-.28-.209-.524-.349-.769-.384-.245-.035-.49 0-.699.07-.21.105-.42.28-.629.455-.14.21-.245.489-.28.768-.035.28-.035.56.07.84.105.279.28.524.525.768.419.35.908.63 1.468.874.559.245 1.153.42 1.817.594.664.14 1.328.21 1.992.245.7.035 1.364-.035 2.028-.14.664-.105 1.293-.28 1.887-.524.594-.28 1.119-.594 1.573-1.014.454-.42.804-.909 1.083-1.503.28-.559.42-1.258.42-1.992 0-.699-.07-1.293-.315-1.818-.21-.489-.524-.943-.908-1.293-.385-.384-.84-.664-1.329-.909-.489-.244-1.048-.454-1.607-.629-.56-.174-1.119-.35-1.678-.489-.56-.14-1.049-.315-1.538-.454-.49-.14-.909-.35-1.258-.56-.35-.21-.63-.454-.804-.769-.175-.314-.245-.664-.175-1.118.07-.42.245-.734.524-1.014.245-.244.56-.454.944-.559.384-.14.769-.175 1.223-.21.42 0 .874.035 1.328.105.455.07.874.175 1.259.35.384.14.734.314 1.048.49.315.209.595.279.874.279.28 0 .56-.105.77-.28.209-.175.384-.384.488-.664.105-.28.105-.56 0-.839-.07-.28-.28-.56-.594-.839-.49-.35-1.013-.629-1.608-.874-.594-.244-1.223-.384-1.887-.454-.664-.07-1.328-.07-1.992-.035-.664.07-1.294.21-1.923.42-.594.21-1.153.489-1.642.838-.49.35-.874.804-1.224 1.294-.314.524-.524 1.118-.594 1.747-.07.84-.035 1.573.175 2.167.21.595.524 1.084.943 1.503.42.42.91.734 1.469 1.014s1.153.49 1.747.664c.63.175 1.223.35 1.818.524.594.14 1.153.35 1.642.56.49.21.874.454 1.189.734.28.21.454.594.49 1.013zm-20.482 4.753c.384 0 .699-.07.944-.245.244-.14.454-.35.559-.56.105-.244.175-.489.175-.733 0-.28-.07-.525-.21-.77-.14-.244-.315-.454-.56-.593-.244-.14-.558-.245-.908-.245h-7.305v-3.6h6.012c.35 0 .664-.07.874-.21.244-.14.419-.35.524-.594.14-.21.175-.49.175-.734 0-.28-.07-.524-.175-.769-.105-.245-.28-.42-.524-.594-.245-.14-.525-.21-.874-.21h-6.012v-3.6h6.886c.35 0 .664-.105.908-.245.245-.14.42-.35.56-.594.104-.245.174-.49.174-.734 0-.28-.07-.524-.174-.734-.14-.245-.315-.42-.56-.594-.244-.14-.559-.21-.908-.21h-8.599c-.28 0-.524.07-.769.175-.21.105-.384.315-.524.524-.14.245-.175.49-.21.77v13.596c0 .28.07.524.21.734.14.244.315.42.524.524.245.14.455.175.77.175h9.017v.07zm-18.944-1.049l6.116-13.387c.14-.314.175-.664.14-.908-.035-.28-.14-.525-.314-.734-.175-.175-.385-.35-.63-.455-.244-.105-.489-.14-.734-.14-.28 0-.524.07-.768.245-.245.14-.42.384-.595.664l-2.132 4.824-2.691 6.326-2.761-6.326-2.132-4.824c-.175-.35-.385-.56-.665-.699-.244-.14-.524-.21-.769-.21-.28 0-.524.07-.768.21-.245.14-.455.28-.595.524-.14.21-.244.455-.28.77-.034.279.036.593.175.908l6.327 13.247c.21.454.49.804.804 1.014.28.21.594.28.909.28.314-.036.594-.14.838-.385.175-.28.385-.56.525-.944zm-20.238-4.998l2.936-5.907 2.727 5.907h-5.663zm-2.481 5.243l1.013-2.097h8.843l1.049 2.097c.14.314.35.524.559.664.245.14.49.21.734.21.28 0 .524-.07.769-.21.245-.14.454-.315.594-.49.175-.21.28-.454.28-.733 0-.28-.035-.56-.21-.91l-6.746-13.421c-.14-.315-.35-.56-.629-.734-.28-.175-.56-.245-.839-.245-.314 0-.594.105-.839.245-.28.175-.489.42-.664.734l-6.885 13.422c-.14.35-.21.664-.175.943.035.315.14.56.314.804.175.245.385.42.665.56.28.07.559.07.838.035.28-.035.525-.105.734-.245.28-.14.455-.35.595-.63zm-17.512.804c.28 0 .525-.07.77-.175.209-.14.384-.315.524-.524.14-.21.174-.455.21-.734v-5.243h7.794v5.243c0 .28.07.524.244.734.14.244.35.42.595.524.244.14.524.175.803.175.28 0 .525-.07.77-.175.244-.14.384-.315.524-.524.14-.21.21-.455.21-.734V2.6c0-.28-.07-.56-.21-.769-.14-.21-.28-.384-.525-.524-.21-.14-.454-.175-.769-.175-.28 0-.559.07-.803.175-.245.105-.42.314-.595.524-.14.245-.244.49-.244.77v5.207h-7.795V2.6c0-.28-.07-.56-.21-.769-.104-.21-.279-.384-.524-.524-.21-.14-.489-.175-.769-.175-.35 0-.664.07-.908.175-.245.105-.455.314-.595.524-.14.245-.21.49-.21.77v13.596c0 .28.07.524.21.734.14.244.315.42.595.524.244.14.559.175.908.175zm-14.575-4.754c-.07.56-.245 1.014-.524 1.363-.28.315-.664.594-1.084.734-.454.14-.908.21-1.468.21-.524 0-1.048-.07-1.573-.175-.524-.105-1.013-.28-1.502-.454-.455-.21-.874-.42-1.189-.63-.28-.209-.524-.349-.769-.384-.244-.035-.49 0-.699.07-.21.105-.454.28-.664.455-.14.21-.245.489-.28.768-.035.28 0 .56.07.84.07.279.28.524.525.768.419.35.908.63 1.468.874.559.245 1.153.42 1.817.594.664.14 1.328.21 1.992.245.7.035 1.364-.035 2.028-.14.664-.105 1.293-.28 1.887-.524.594-.28 1.119-.594 1.573-1.014.454-.42.804-.909 1.084-1.503.244-.559.419-1.258.419-1.992 0-.699-.07-1.293-.315-1.818-.21-.489-.524-.943-.908-1.293-.385-.384-.84-.664-1.329-.909-.489-.244-1.013-.454-1.607-.629-.56-.174-1.084-.35-1.643-.489-.524-.14-1.049-.315-1.538-.454-.49-.14-.909-.35-1.258-.56-.35-.21-.63-.454-.804-.769-.175-.314-.245-.664-.175-1.118.07-.42.245-.734.524-1.014.245-.244.56-.454.909-.559.384-.14.804-.175 1.223-.21.455 0 .874.035 1.329.105.454.07.873.175 1.258.35.384.14.769.314 1.048.49.28.209.595.279.874.279.28 0 .56-.105.77-.28.209-.175.384-.384.488-.664.105-.28.105-.56.035-.839-.07-.28-.28-.56-.594-.839-.49-.35-1.013-.629-1.608-.874-.594-.244-1.223-.384-1.887-.454-.664-.07-1.328-.07-1.992-.035-.664.07-1.294.21-1.923.42-.594.21-1.153.489-1.642.838-.49.35-.91.804-1.224 1.294-.314.524-.524 1.118-.594 1.747-.07.84-.035 1.573.175 2.167.21.595.524 1.084.944 1.503.419.42.908.734 1.468 1.014.559.28 1.153.49 1.747.664.594.175 1.223.35 1.818.524.594.14 1.118.35 1.607.56.49.21.874.454 1.189.734.314.21.49.594.524 1.013zm-12.688 1.643V9.416c0-.245-.07-.49-.244-.7-.175-.209-.385-.384-.63-.523-.244-.14-.524-.21-.838-.21h-4.789c-.314 0-.594.07-.804.21-.21.14-.384.314-.524.559-.105.21-.175.454-.175.699 0 .244.035.49.14.699.105.21.28.384.49.524.21.14.524.21.873.21h3.6v2.936c-.454.314-.978.594-1.573.769-.594.175-1.293.28-2.027.28-.769 0-1.503-.14-2.167-.385-.664-.28-1.258-.63-1.747-1.119-.49-.489-.874-1.083-1.154-1.782-.28-.7-.42-1.503-.42-2.377 0-.664.106-1.293.315-1.887.21-.594.49-1.119.84-1.573.384-.455.803-.874 1.292-1.189.49-.35.979-.594 1.538-.769.56-.174 1.119-.244 1.713-.244.42 0 .839.07 1.223.21.385.14.77.314 1.154.524.35.244.699.49.978.769.315.244.595.384.91.384.314 0 .593-.07.873-.244.28-.175.49-.385.63-.665.139-.28.209-.559.174-.873-.035-.315-.175-.63-.49-.91-.489-.488-1.048-.908-1.642-1.222-.594-.28-1.224-.525-1.888-.665-.629-.14-1.293-.21-1.922-.21-1.014 0-1.957.14-2.866.42-.909.28-1.713.664-2.412 1.189-.734.524-1.363 1.153-1.887 1.852-.525.7-.944 1.503-1.224 2.377-.28.874-.42 1.782-.42 2.761 0 1.433.21 2.656.63 3.74.42 1.084 1.014 1.957 1.783 2.691.769.7 1.677 1.259 2.726 1.608 1.048.35 2.202.56 3.46.56.7 0 1.398-.07 2.097-.21.7-.14 1.364-.35 1.993-.664.664-.28 1.258-.665 1.817-1.154.21-.245.35-.454.455-.664.104-.21.14-.42.14-.63zm-32.296 1.468c0 .35.07.664.245.909.14.244.35.42.594.559.245.14.524.175.804.175s.56-.07.769-.175c.245-.14.42-.315.524-.56.14-.244.175-.559.21-.908V6.759l7.934 10.067c.21.21.42.384.63.524.174.105.384.21.594.245.21.07.454.07.734.07.21-.035.419-.14.594-.28s.35-.28.49-.524c.139-.21.174-.49.174-.84V2.532c0-.28-.105-.525-.245-.77-.175-.244-.384-.454-.629-.594-.245-.175-.524-.245-.839-.28-.244 0-.524.105-.734.28-.21.14-.384.35-.524.594-.14.245-.21.525-.21.77v9.297l-7.934-9.892c-.14-.175-.28-.28-.42-.42-.104-.104-.244-.174-.349-.244-.105-.07-.245-.105-.384-.14-.14-.035-.315-.035-.525-.035-.42 0-.734.07-.909.245-.21.175-.35.384-.419.629-.07.245-.105.524-.105.839v13.177h-.07zm-6.746.21c0 .314.105.629.245.839.14.21.35.384.594.489.245.105.49.175.77.175.279 0 .524-.07.768-.175.245-.105.42-.28.594-.49.14-.21.245-.489.245-.838V2.53c0-.35-.07-.629-.245-.839-.174-.21-.35-.384-.594-.489-.244-.105-.49-.175-.769-.175-.28 0-.524.07-.769.175-.244.105-.454.28-.594.524-.14.21-.245.49-.245.804v13.667zm-15.833 1.433c.28 0 .524-.07.734-.175.21-.14.384-.315.524-.524.14-.21.175-.455.175-.734v-5.243h7.794v5.243c0 .28.07.524.245.734.14.244.35.42.594.524.245.14.525.175.804.175.28 0 .524-.07.77-.175.209-.14.384-.315.523-.524.14-.21.21-.455.21-.734V2.6c0-.28-.07-.56-.21-.769-.14-.21-.314-.384-.524-.524-.21-.14-.454-.175-.769-.175-.28 0-.56.07-.804.175-.244.105-.454.314-.594.524-.14.245-.21.49-.245.77v5.207h-7.794V2.6c0-.28-.07-.56-.175-.769-.14-.21-.314-.384-.524-.524-.21-.14-.454-.175-.734-.175-.35 0-.664.07-.909.175-.244.105-.454.314-.56.524-.139.245-.209.49-.209.77v13.596c0 .28.07.524.21.734.14.244.315.42.56.524.209.14.523.175.908.175zm-12.758-1.468c0 .35.07.664.245.874.175.244.35.419.594.524.245.14.49.175.77.175.279 0 .523-.07.768-.175.245-.105.42-.28.594-.524.175-.245.245-.525.245-.874V4.068h3.95c.35 0 .664-.07.908-.21.245-.14.42-.35.525-.559.104-.245.174-.49.174-.734 0-.245-.07-.524-.174-.734-.105-.245-.28-.42-.525-.56-.244-.139-.524-.209-.908-.244h-11.29c-.35 0-.63.07-.874.245-.21.14-.42.314-.524.56-.105.244-.175.488-.175.733s.035.49.175.734c.105.245.28.42.524.56.245.14.524.21.874.21h4.194v12.093h-.07zM97.72 14.519V9.416c0-.245-.07-.49-.245-.7-.175-.209-.35-.384-.63-.523-.244-.14-.524-.21-.838-.21h-4.789c-.314 0-.594.07-.804.21-.21.14-.384.314-.524.559-.105.21-.175.454-.175.699-.035.244.035.49.14.699.105.21.28.384.49.524.21.14.524.21.873.21h3.566v2.936c-.42.314-.98.594-1.573.769-.595.175-1.259.28-1.993.28-.769 0-1.503-.14-2.167-.385-.664-.28-1.258-.63-1.747-1.119-.49-.489-.874-1.083-1.154-1.782-.28-.7-.42-1.503-.42-2.377 0-.664.106-1.293.315-1.887.21-.594.49-1.119.874-1.573.35-.455.77-.874 1.259-1.189.489-.35 1.013-.594 1.537-.769.56-.174 1.119-.244 1.713-.244.42 0 .839.07 1.223.21.42.14.77.314 1.154.524.35.244.699.49.979.769.314.244.594.384.908.384.315 0 .594-.07.874-.244.245-.175.454-.385.63-.665.14-.28.209-.559.174-.873-.035-.315-.21-.63-.49-.91-.489-.488-1.048-.908-1.642-1.222-.594-.28-1.223-.525-1.888-.665-.664-.14-1.293-.21-1.922-.21-1.014 0-1.957.14-2.866.42-.874.28-1.678.664-2.412 1.189-.734.524-1.363 1.153-1.887 1.852-.524.7-.944 1.503-1.224 2.377-.28.874-.419 1.782-.419 2.761 0 1.433.21 2.656.63 3.74.419 1.084 1.013 1.957 1.782 2.691.734.7 1.677 1.259 2.726 1.608 1.049.35 2.202.56 3.46.56.7 0 1.398-.07 2.098-.21.699-.14 1.328-.35 1.992-.664.629-.28 1.258-.665 1.817-1.154.21-.245.35-.454.455-.664.07-.21.14-.42.14-.63zm-21.426 1.678c0 .314.105.629.244.839.14.21.35.384.595.489.244.105.489.175.768.175.245 0 .525-.07.77-.175.244-.105.419-.28.559-.49.14-.21.244-.489.244-.838V2.53c0-.35-.07-.629-.244-.839-.14-.21-.35-.384-.56-.489-.244-.105-.524-.175-.769-.175-.28 0-.524.07-.768.175-.245.105-.42.28-.595.524-.14.21-.244.49-.244.804v13.667zm-14.296-5.698h5.872c.454 0 .839.105 1.154.315.314.175.524.454.699.769.14.314.21.664.21 1.014s-.07.699-.21 1.013c-.175.315-.385.594-.7.77-.314.209-.699.314-1.153.314h-5.837v-4.195h-.035zm5.837 7.13c.909 0 1.678-.14 2.377-.384.699-.244 1.258-.629 1.713-1.048.454-.455.803-.979 1.013-1.573.245-.594.35-1.259.35-1.958 0-.594-.105-1.153-.28-1.642-.175-.49-.49-.979-.909-1.363-.42-.385-.908-.7-1.538-.98.35-.279.595-.593.804-.943.175-.35.315-.664.42-1.013.07-.35.105-.7.105-1.05 0-.628-.105-1.187-.315-1.747-.21-.559-.524-1.048-.909-1.468-.42-.42-.908-.734-1.538-1.013-.594-.245-1.293-.35-2.062-.35h-6.71c-.28 0-.56.07-.77.175-.21.105-.384.314-.524.524-.14.245-.21.49-.21.77v13.596c0 .28.07.524.21.734.105.244.28.42.524.524.21.14.49.175.77.175h7.48v.035zm.909-11.953c0 .63-.175 1.118-.454 1.433-.28.315-.7.49-1.224.49h-5.068V4.032h5.068c.35 0 .63.07.874.245.245.175.454.384.56.629.139.21.244.49.244.769zM508.866 12.876c-.07.56-.245 1.014-.56 1.363-.279.315-.628.594-1.083.734-.454.14-.943.21-1.433.21-.524 0-1.048-.07-1.608-.175-.524-.105-1.048-.28-1.503-.454-.454-.21-.873-.42-1.188-.63-.28-.209-.524-.349-.769-.384-.245-.035-.454 0-.699.07-.245.105-.454.28-.63.455-.139.21-.244.489-.279.768-.035.28-.035.56.07.84.105.279.28.524.524.768.42.35.91.63 1.468.874.56.245 1.154.42 1.818.594.664.14 1.328.21 1.992.245.7.035 1.363-.035 2.028-.14.664-.105 1.293-.28 1.887-.524.594-.28 1.118-.594 1.573-1.014.454-.42.804-.909 1.083-1.503.28-.559.42-1.258.455-1.992 0-.699-.105-1.293-.315-1.818-.21-.489-.524-.943-.909-1.293-.384-.384-.838-.664-1.363-.909-.49-.244-1.013-.454-1.573-.629-.559-.174-1.118-.35-1.677-.489-.56-.14-1.084-.315-1.538-.454-.49-.14-.909-.35-1.259-.56-.349-.21-.629-.454-.803-.769-.175-.314-.245-.664-.175-1.118.07-.42.28-.734.524-1.014.245-.244.56-.454.944-.559.384-.14.769-.175 1.223-.21.455 0 .874.035 1.328.105.42.07.874.175 1.259.35.384.14.734.314 1.048.49.28.209.594.279.874.279s.56-.105.769-.28c.21-.175.384-.384.454-.664.105-.28.105-.56.035-.839-.07-.28-.28-.56-.594-.839-.49-.35-1.013-.629-1.608-.874-.594-.244-1.223-.384-1.887-.454-.664-.07-1.328-.07-1.992-.035-.665.07-1.329.21-1.923.42-.629.21-1.153.489-1.643.838-.489.35-.908.804-1.223 1.294-.314.524-.49 1.118-.594 1.747-.07.84-.035 1.573.175 2.167.21.595.524 1.084.943 1.503.42.42.91.734 1.468 1.014.56.28 1.154.49 1.748.664.63.175 1.223.35 1.818.524.594.14 1.153.35 1.607.56.49.21.91.454 1.189.734.314.21.49.594.524 1.013m-12.688 1.643V9.416c0-.245-.105-.49-.244-.7-.175-.209-.385-.384-.63-.523-.244-.14-.559-.21-.838-.21h-4.789c-.314 0-.594.07-.804.21-.21.14-.384.314-.524.559-.105.21-.175.454-.175.699 0 .244.035.49.14.699.105.21.28.384.49.524.244.14.524.21.873.21h3.6v2.936c-.454.314-.978.594-1.573.769-.594.175-1.258.28-2.027.28-.769 0-1.503-.14-2.167-.385-.664-.28-1.258-.63-1.748-1.119-.489-.489-.873-1.083-1.153-1.782-.28-.7-.42-1.503-.42-2.377 0-.664.105-1.293.315-1.887.21-.594.49-1.119.839-1.573.35-.455.804-.874 1.258-1.189.49-.35.979-.594 1.538-.769.56-.174 1.119-.244 1.713-.244.42 0 .804.07 1.223.21.385.14.77.314 1.154.524.384.244.699.49.978.769.28.244.594.384.91.384.314 0 .593-.07.873-.244.245-.175.454-.385.629-.665.14-.28.21-.559.175-.873-.035-.315-.21-.63-.49-.91-.489-.488-1.048-.908-1.642-1.222-.595-.28-1.224-.525-1.888-.665-.664-.14-1.293-.21-1.922-.21-1.014 0-1.957.14-2.866.42-.909.28-1.678.664-2.412 1.189-.734.524-1.363 1.153-1.887 1.852-.525.7-.944 1.503-1.224 2.377-.28.874-.42 1.782-.42 2.761 0 1.433.21 2.656.63 3.74.42 1.084 1.014 1.957 1.783 2.691.769.7 1.677 1.259 2.726 1.608 1.048.35 2.202.56 3.46.56.7 0 1.398-.07 2.097-.21.664-.14 1.363-.35 1.958-.664.629-.28 1.258-.665 1.817-1.154.21-.245.35-.454.42-.664.21-.21.244-.42.244-.63zm-32.296 1.468c0 .35.07.664.21.909.14.244.35.42.594.559.245.14.524.175.804.175s.56-.07.769-.175c.21-.14.384-.315.524-.56.14-.244.21-.559.21-.908V6.759l7.934 10.067c.21.21.42.384.63.524.174.105.384.21.593.245.21.07.455.07.734.07.21-.035.42-.14.595-.28.174-.14.35-.28.454-.524.14-.21.175-.49.175-.84V2.532c0-.28-.07-.525-.245-.77-.175-.244-.35-.454-.629-.594-.245-.175-.524-.245-.804-.28-.28 0-.524.105-.769.28-.21.14-.42.35-.56.594-.139.245-.209.525-.209.77v9.297l-7.934-9.892c-.14-.175-.28-.28-.42-.42-.104-.104-.244-.174-.349-.244-.105-.07-.245-.105-.384-.14-.14-.035-.315-.035-.56-.035-.42 0-.734.07-.908.245-.21.175-.35.384-.42.629s-.105.524-.105.839v13.177h.07zm-6.746.21c0 .314.105.629.245.839.14.21.35.384.594.489.245.105.49.175.77.175.279 0 .523-.07.768-.175.245-.105.42-.28.56-.49.14-.21.244-.489.244-.838V2.53c0-.35-.105-.629-.245-.839-.14-.21-.35-.384-.559-.489-.245-.105-.49-.175-.769-.175-.28 0-.524.07-.769.175-.21.105-.42.28-.594.524-.14.21-.245.49-.245.804v13.667zm-17.72-.21c0 .35.104.664.244.909.14.244.35.42.594.559.245.14.525.175.804.175.28 0 .56-.07.77-.175.209-.14.419-.315.523-.56.14-.244.21-.559.21-.908V6.759l7.934 10.067c.21.21.42.384.63.524.21.105.384.21.594.245.21.07.454.07.734.07.21-.035.42-.14.629-.28.175-.14.35-.28.454-.524.14-.21.175-.49.21-.84V2.532c0-.28-.07-.525-.245-.77-.14-.244-.35-.454-.629-.594-.28-.175-.524-.245-.839-.28-.28 0-.524.105-.734.28-.244.14-.42.35-.559.594-.14.245-.21.525-.21.77v9.297l-7.934-9.892c-.14-.175-.28-.28-.42-.42-.14-.104-.244-.174-.349-.244-.105-.07-.245-.105-.384-.14-.14-.035-.315-.035-.56-.035-.419 0-.699.07-.908.245-.21.175-.35.384-.42.629s-.105.524-.105.839v13.177h-.035zm-17.617 0c0 .35.07.664.245.909.14.244.35.42.594.559.245.14.524.175.804.175s.56-.07.769-.175c.21-.14.42-.315.524-.56.14-.244.21-.559.21-.908V6.759l7.9 10.067c.244.21.419.384.628.524.175.105.385.21.595.245.21.07.454.07.734.07.21-.035.42-.14.629-.28.175-.14.35-.28.454-.524.14-.21.21-.49.21-.84V2.532c0-.28-.07-.525-.245-.77-.14-.244-.35-.454-.629-.594-.245-.175-.524-.245-.839-.28-.28 0-.524.105-.769.28-.21.14-.42.35-.524.594-.14.245-.21.525-.21.77v9.297l-7.899-9.892c-.175-.175-.315-.28-.42-.42-.14-.104-.244-.174-.349-.244-.105-.07-.245-.105-.384-.14-.14-.035-.35-.035-.525-.035-.42 0-.734.07-.909.245-.21.175-.349.384-.419.629s-.105.524-.105.839v13.177h-.07zm-6.746.21c0 .314.105.629.245.839.14.21.35.384.594.489.245.105.49.175.77.175.279 0 .524-.07.768-.175.245-.105.455-.28.594-.49.175-.21.245-.489.245-.838V2.53c0-.35-.07-.629-.245-.839-.14-.21-.35-.384-.594-.489-.244-.105-.49-.175-.769-.175-.244 0-.524.07-.769.175-.244.105-.42.28-.594.524-.14.21-.245.49-.245.804v13.667zm-3.635-1.678V9.416c0-.245-.07-.49-.244-.7-.175-.209-.385-.384-.63-.523-.244-.14-.524-.21-.838-.21h-4.789c-.314 0-.594.07-.804.21-.21.14-.384.314-.524.559-.105.21-.175.454-.175.699 0 .244.035.49.14.699.105.21.28.384.49.524.21.14.524.21.873.21h3.6v2.936c-.454.314-.978.594-1.573.769-.594.175-1.293.28-2.027.28-.769 0-1.503-.14-2.167-.385-.664-.28-1.258-.63-1.747-1.119-.49-.489-.874-1.083-1.154-1.782-.28-.7-.42-1.503-.42-2.377 0-.664.106-1.293.315-1.887.21-.594.49-1.119.874-1.573.35-.455.769-.874 1.258-1.189.49-.35.979-.594 1.538-.769.56-.174 1.119-.244 1.713-.244.42 0 .804.07 1.223.21.385.14.77.314 1.154.524.35.244.699.49.978.769.315.244.595.384.91.384.314 0 .593-.07.873-.244.28-.175.49-.385.63-.665.139-.28.209-.559.174-.873-.035-.315-.21-.63-.49-.91-.489-.488-1.048-.908-1.642-1.222-.594-.28-1.224-.525-1.888-.665-.664-.14-1.293-.21-1.922-.21-1.014 0-1.957.14-2.866.42-.909.28-1.713.664-2.447 1.189-.734.524-1.363 1.153-1.852 1.852-.525.7-.944 1.503-1.224 2.377-.28.874-.42 1.782-.42 2.761 0 1.433.246 2.656.63 3.74.42 1.084 1.014 1.957 1.783 2.691.769.7 1.677 1.259 2.726 1.608 1.049.35 2.202.56 3.46.56.7 0 1.398-.07 2.097-.21.7-.14 1.364-.35 1.993-.664.629-.28 1.258-.665 1.817-1.154.175-.245.35-.454.455-.664.104-.21.14-.42.14-.63zm-18.944 3.11c.385 0 .7-.07.979-.244.244-.14.454-.35.56-.56.139-.244.174-.489.174-.733 0-.28-.07-.525-.21-.77-.14-.244-.314-.454-.56-.593-.244-.14-.558-.245-.908-.245h-7.305v-3.6h6.047c.35 0 .664-.07.874-.21.244-.14.419-.35.524-.594.105-.21.175-.49.175-.734 0-.28-.07-.524-.175-.769-.105-.245-.315-.42-.524-.594-.21-.14-.525-.21-.874-.21h-6.047v-3.6h6.886c.35 0 .664-.105.908-.245.245-.14.42-.35.56-.594.105-.245.174-.49.174-.734 0-.28-.07-.524-.174-.734-.14-.245-.315-.42-.56-.594-.244-.14-.559-.21-.908-.21h-8.599c-.28 0-.524.07-.769.175-.21.105-.384.315-.524.524-.14.245-.21.49-.21.77v13.596c0 .28.07.524.21.734.14.244.315.42.524.524.245.14.49.175.77.175h8.982v.07zm-24.606-7.13h5.837c.454 0 .838.105 1.153.315.315.175.524.454.7.769.139.314.244.664.244 1.014s-.07.699-.245 1.013c-.175.315-.384.594-.699.77-.315.209-.699.314-1.153.314h-5.837v-4.195zm5.872 7.13c.908 0 1.677-.14 2.376-.384.664-.244 1.224-.629 1.713-1.048.454-.455.804-.979 1.049-1.573.244-.594.35-1.259.35-1.958 0-.594-.106-1.153-.28-1.642-.175-.49-.49-.979-.91-1.363-.384-.385-.908-.7-1.537-.98.35-.279.594-.593.804-.943.21-.35.314-.664.42-1.013.07-.35.104-.7.104-1.05 0-.628-.105-1.187-.315-1.747-.21-.559-.524-1.048-.908-1.468-.42-.42-.91-.734-1.503-1.013-.594-.245-1.294-.35-2.062-.35h-6.746c-.28 0-.56.07-.77.175-.209.105-.384.314-.524.524-.104.245-.174.49-.174.77v13.596c0 .28.07.524.174.734.14.244.315.42.525.524.21.14.454.175.769.175h7.445v.035zm.873-11.953c0 .63-.174 1.118-.454 1.433-.28.315-.699.49-1.223.49h-5.068V4.032h5.068c.35 0 .629.07.873.245.245.175.455.384.595.629.14.21.21.49.21.769zM520.016.258H568.915V2.145H520.016z" transform="translate(-60 -956) translate(60 956) translate(3.495 314.573)"/>
                    </g>
                    <path fill="#A5CD39" fill-rule="nonzero" d="M342.352 271.315h22.09c.594 2.552 1.713 4.404 3.32 5.523 1.609 1.118 3.985 1.677 7.166 1.677 2.656 0 4.754-.454 6.256-1.398 1.538-.909 2.272-2.132 2.272-3.775 0-2.551-3.18-4.613-9.542-6.256-1.293-.315-2.272-.56-2.936-.734-5.208-1.363-9.367-2.552-12.443-3.67-3.11-1.119-5.347-2.132-6.746-3.111-2.726-1.957-4.753-4.3-6.116-7.025-1.363-2.727-2.062-5.803-2.062-9.298 0-7.025 2.621-12.513 7.899-16.532 5.278-3.985 12.548-6.012 21.81-6.012 9.088 0 16.253 1.922 21.461 5.732 5.208 3.845 8.179 9.297 8.843 16.463h-21.566c-.35-2.063-1.258-3.635-2.761-4.649-1.468-1.049-3.635-1.538-6.361-1.538-2.412 0-4.23.385-5.418 1.188-1.188.804-1.783 2.028-1.783 3.636 0 2.341 3.111 4.299 9.298 5.837.56.174.979.28 1.258.35.909.209 2.272.558 4.09.978 8.248 2.097 13.596 3.984 16.148 5.662 3.145 2.062 5.417 4.44 6.85 7.095 1.433 2.657 2.167 5.803 2.167 9.403 0 7.794-2.691 13.806-8.144 18-5.452 4.195-13.282 6.292-23.453 6.292-9.402 0-16.812-2.097-22.3-6.292-5.557-4.02-8.633-9.926-9.297-17.546m-65.326 22.055v-70.709h29.115c6.432 0 11.535.385 15.31 1.119 3.74.769 6.885 1.957 9.437 3.635 3.285 2.202 5.697 4.963 7.305 8.214 1.573 3.285 2.377 7.13 2.377 11.639 0 7.899-2.342 13.946-7.026 18.175-4.683 4.194-11.394 6.326-20.202 6.326h-13.597v21.636h-22.719v-.035zm22.684-38.937h7.305c4.719 0 7.9-.524 9.507-1.608 1.573-1.048 2.377-2.9 2.377-5.592 0-2.726-.769-4.614-2.307-5.663-1.503-1.048-4.753-1.572-9.612-1.572h-7.305v14.435h.035zM212.4 293.37v-70.709h56.518v16.952h-33.8v9.437h28.557v16.218h-28.556v10.94h35.162v17.197H212.4v-.035zm-46.487 0v-52.08H145.57v-18.629h62.984v18.63h-19.923v52.08h-22.72zm-84.375-22.055h22.09c.594 2.552 1.712 4.404 3.32 5.523 1.608 1.118 3.985 1.677 7.165 1.677 2.657 0 4.754-.454 6.257-1.398 1.503-.909 2.272-2.132 2.272-3.775 0-2.551-3.181-4.613-9.542-6.256-1.294-.315-2.272-.56-2.936-.734-5.208-1.363-9.368-2.552-12.443-3.67-3.076-1.119-5.348-2.132-6.746-3.111-2.727-1.957-4.754-4.3-6.117-7.025-1.363-2.727-2.062-5.803-2.062-9.298 0-7.025 2.656-12.513 7.934-16.532 5.278-3.985 12.548-6.012 21.81-6.012 9.088 0 16.253 1.922 21.461 5.732 5.208 3.845 8.144 9.297 8.843 16.463h-21.565c-.35-2.063-1.259-3.635-2.762-4.649-1.503-1.049-3.635-1.538-6.361-1.538-2.447 0-4.23.385-5.418 1.188-1.188.804-1.782 2.028-1.782 3.636 0 2.341 3.11 4.299 9.297 5.837.56.174.944.28 1.258.35.91.209 2.272.558 4.09.978 8.214 2.097 13.596 3.984 16.113 5.662 3.146 2.062 5.418 4.44 6.886 7.095 1.433 2.657 2.167 5.803 2.167 9.403 0 7.794-2.727 13.806-8.18 18-5.452 4.195-13.281 6.292-23.452 6.292-9.403 0-16.813-2.097-22.3-6.292-5.523-4.02-8.633-9.926-9.297-17.546z" transform="translate(-60 -956) translate(60 956)"/>
                    <path fill="#16479D" fill-rule="nonzero" d="M416.172 145.521c4.963 0 9.996 3.006 9.996 9.053 0 5.907-5.068 8.948-9.996 8.948-5.068 0-10.101-3.006-10.101-8.948 0-6.012 5.033-9.053 10.1-9.053zm8.913 69.38v-47.22h-17.966v47.22h17.966zM468.251 214.902v-26.53c0-5.941-3.39-7.968-6.71-7.968-4.265 0-8.25 2.9-8.25 9.227v25.27h-17.685v-47.99h15.833l.769 5.244c4.09-4.754 10.101-6.501 15.17-6.431 10.1.104 18.769 5.452 18.769 22.544v26.634H468.25z" transform="translate(-60 -956) translate(60 956)"/>
                    <g fill="#16479D">
                        <path d="M288.77 90.121L267.659 2.53 295.061 2.53 304.604 59.083 315.649 2.53 338.997 2.53 349.587 59.083 358.815 2.53 385.519 2.53 364.687 90.121 336.795 90.121 326.798 37.623 317.151 90.121zM175.699 81.383c-.035-.105-.07-.21-.07-.28l-.455-12.233c-.174-5.872-1.328-10.31-3.565-13.317-2.202-3.04-5.767-5.103-10.625-6.117 4.788-2.062 8.353-4.858 10.625-8.388 2.272-3.53 3.46-7.97 3.46-13.317 0-8.948-2.796-15.414-8.423-19.329-5.627-3.914-14.995-5.872-28.137-5.872H96.566v87.626h27.787V59.957h11.954c4.404 0 7.48.909 9.263 2.761 1.782 1.853 2.69 5.034 2.69 9.542V81c0 .873.106 2.097.385 3.67.28 1.572.664 3.39 1.154 5.487h27.927l.454-.454V86.87c-1.538-.175-2.377-1.993-2.481-5.488zm-29.29-43.026c-1.713 1.188-4.79 1.817-9.263 1.817h-12.793V23.746h12.094c4.963 0 8.284.63 9.996 1.818 1.713 1.223 2.552 3.355 2.552 6.466 0 3.006-.874 5.103-2.587 6.327zM69.897 90.051l-1.363-7.55c-3.18 3.356-6.99 5.873-11.5 7.515-4.473 1.643-9.681 2.482-15.623 2.482-12.513 0-22.405-4.124-29.64-12.338C4.571 71.946.936 60.656.936 46.326c0-14.61 4.02-25.97 12.094-34.044C21.069 4.208 32.358.188 46.864.188c11.43 0 20.622 2.832 27.612 8.529 6.99 5.662 11.15 13.666 12.443 23.977H60.215c-1.083-3.495-2.796-6.151-5.207-8.004-2.412-1.817-5.383-2.726-8.913-2.726-5.628 0-9.857 2.132-12.653 6.466-2.796 4.334-4.194 10.8-4.194 19.364 0 7.899 1.398 13.84 4.229 17.79 2.831 3.915 7.095 5.873 12.862 5.873 4.125 0 7.655-.944 10.486-2.867 2.866-1.922 4.649-4.508 5.348-7.759H49.485v-18.77h38.483v48.025h-18.07v-.035z" transform="translate(-60 -956) translate(60 956) translate(0 125.83)"/>
                        <path fill-rule="nonzero" d="M224.038 90.121c-27.333 0-46.452-15.868-46.452-43.795 0-27.473 19.084-43.83 46.452-43.83 27.473 0 46.452 16.008 46.452 43.83-.035 27.927-19.014 43.795-46.452 43.795zm0-67.423c-13.492 0-22.79 9.787-22.79 23.628 0 13.946 9.438 23.628 22.79 23.628 13.841 0 22.789-9.787 22.789-23.628 0-14.33-8.948-23.628-22.79-23.628z" transform="translate(-60 -956) translate(60 956) translate(0 125.83)"/>
                    </g>
                    <g fill="#16479D" fill-rule="nonzero">
                        <path d="M50.555 16.533c-.804-6.781-3.25-11.22-6.71-13.912.209 2.971.244 6.257.069 10.067 2.412 1.188 4.614 2.481 6.641 3.845zM45.172 38.413c-2.516-3.111-6.396-4.649-11.849-4.649h-.35v14.33h15.73c-.455-3.74-1.503-7.165-3.53-9.681zM.328 29.745C4.348 18.14 3.788 7.969 1.796.14H.328v29.605zM17.98 41.803c-1.644 1.853-3.321 3.985-5.104 6.327h5.103v-6.327z" transform="translate(-60 -956) translate(60 956) translate(495.326 166.772)"/>
                    </g>
                    <g>
                        <path fill="#A5CD39" d="M142.432 125.353c8.703-15.449-3.53-35.476-15.38-30.653-10.276 4.194-5.732 31.807 15.38 30.653m-55.82 123.523c-6.57 4.229-10.765 6.85-16.917 10.03 72.177-15.238 66.795-61.026 93.743-61.2 24.222-.14 19.154 27.402 15.799 43.026 3.18-3.076 9.332-12.409 12.023-23.209 4.404-17.581-3.95-28.975-20.028-36.28 1.364-21.706-3.95-26.844-8.703-41.769 17.896-7.165 30.723-20.342 29.675-47.256-3.216 7.305-5.383 13.073-10.87 19.19-11.115 12.372-31.458 18.42-48.829 20.237-46.417 4.823-62.775-2.761-92.17-4.264 50.227 19.783 83.082 6.815 92.904 33.52 13.911 37.678-17.616 69.31-46.627 87.975z" transform="translate(-60 -956) translate(60 956) translate(365.001)"/>
                        <path fill="#A5CD39" d="M46.382 283.409c52.708-19.364 106.78-44.39 163.193-15.38-39.181-48.514-127.052-2.796-163.193 15.38" transform="translate(-60 -956) translate(60 956) translate(365.001)"/>
                        <path fill="#16479D" d="M175.567 7.738c-13.737 9.507-29.955 21.88-37.33 35.722-22.894 42.956 48.794 59.454 37.33-35.722M.454 91.414c10.8-.454 24.013-.384 33.24 3.88 28.556 13.247-2.062 49.738-33.24-3.88zM210.1 44.648c-9.298 5.522-20.343 12.793-25.725 21.39-16.708 26.705 28.87 40.58 25.725-21.39zM80.88.818c-2.132 16.532-3.775 36.91 1.573 51.66 16.602 45.717 76.826 3.46-1.573-51.66zM25.725 36.644c3.11 16.393 7.864 36.246 17.511 48.619 29.92 38.308 74.1-20.552-17.51-48.62z" transform="translate(-60 -956) translate(60 956) translate(365.001)"/>
                    </g>
                </g>
            </g>
        </g>
    </g>
</svg>
