<svg xmlns="http://www.w3.org/2000/svg" width="24" height="24" viewBox="0 0 72 72">
    <g fill="none" fill-rule="evenodd">
        <g>
            <g>
                <path d="M0 0H72V72H0z" transform="translate(-456 -60) translate(456 60)"/>
                <path fill="#595C60" fill-rule="nonzero" d="M15.879 26.879c1.124-1.125 2.92-1.17 4.098-.135l.144.135L36 42.757l15.879-15.878c1.124-1.125 2.92-1.17 4.098-.135l.144.135c1.125 1.124 1.17 2.92.135 4.098l-.135.144-18 18c-1.124 1.125-2.92 1.17-4.098.135l-.144-.135-18-18c-1.172-1.171-1.172-3.07 0-4.242z" transform="translate(-456 -60) translate(456 60)"/>
            </g>
        </g>
    </g>
</svg>
