<svg xmlns="http://www.w3.org/2000/svg" width="24" height="24" viewBox="0 0 72 72">
    <g fill="none" fill-rule="evenodd">
        <g>
            <g>
                <path d="M0 0H72V72H0z" transform="translate(-60 -60) translate(60 60)"/>
                <path fill="#595C60" fill-rule="nonzero" d="M42.879 15.879c1.171-1.172 3.07-1.172 4.242 0 1.125 1.124 1.17 2.92.135 4.098l-.135.144L31.243 36l15.878 15.879c1.125 1.124 1.17 2.92.135 4.098l-.135.144c-1.124 1.125-2.92 1.17-4.098.135l-.144-.135-18-18c-1.125-1.124-1.17-2.92-.135-4.098l.135-.144 18-18z" transform="translate(-60 -60) translate(60 60)"/>
            </g>
        </g>
    </g>
</svg>
