<svg xmlns="http://www.w3.org/2000/svg" width="24" height="24" viewBox="0 0 72 72">
    <g fill="none" fill-rule="evenodd">
        <g>
            <g>
                <path d="M0 0H72V72H0z" transform="translate(-720 -324) translate(720 324)"/>
                <path fill="#999" fill-rule="nonzero" d="M54.9 17.13c-1.17-1.17-3.06-1.17-4.23 0L36 31.77 21.33 17.1c-1.17-1.17-3.06-1.17-4.23 0-1.17 1.17-1.17 3.06 0 4.23L31.77 36 17.1 50.67c-1.17 1.17-1.17 3.06 0 4.23 1.17 1.17 3.06 1.17 4.23 0L36 40.23 50.67 54.9c1.17 1.17 3.06 1.17 4.23 0 1.17-1.17 1.17-3.06 0-4.23L40.23 36 54.9 21.33c1.14-1.14 1.14-3.06 0-4.2z" transform="translate(-720 -324) translate(720 324)"/>
            </g>
        </g>
    </g>
</svg>
