<svg xmlns="http://www.w3.org/2000/svg" width="72" height="72" viewBox="0 0 72 72">
    <g fill="none" fill-rule="evenodd">
        <g>
            <g>
                <path d="M0 0H72V72H0z" transform="translate(-588 -60) translate(588 60)"/>
                <path fill="#595C60" fill-rule="nonzero" d="M36 24c-6.63 0-12 5.37-12 12s5.37 12 12 12 12-5.37 12-12-5.37-12-12-12zm26.82 9C61.44 20.49 51.51 10.56 39 9.18V6c0-1.65-1.35-3-3-3s-3 1.35-3 3v3.18C20.49 10.56 10.56 20.49 9.18 33H6c-1.65 0-3 1.35-3 3s1.35 3 3 3h3.18C10.56 51.51 20.49 61.44 33 62.82V66c0 1.65 1.35 3 3 3s3-1.35 3-3v-3.18C51.51 61.44 61.44 51.51 62.82 39H66c1.65 0 3-1.35 3-3s-1.35-3-3-3h-3.18zM36 57c-11.61 0-21-9.39-21-21s9.39-21 21-21 21 9.39 21 21-9.39 21-21 21z" transform="translate(-588 -60) translate(588 60)"/>
            </g>
        </g>
    </g>
</svg>
