<svg xmlns="http://www.w3.org/2000/svg" width="24" height="24" viewBox="0 0 72 72">
    <g fill="none" fill-rule="evenodd">
        <g>
            <g>
                <path d="M0 0H72V72H0z" transform="translate(-1248 -60) translate(1248 60)"/>
                <path fill="#595C60" fill-rule="nonzero" d="M54 3c.944 0 1.833.445 2.4 1.2l9 12 .013.018c.283.383.477.834.552 1.325l.01.065.012.109c.009.094.013.188.013.283l-.006-.187v.01L66 18v42c0 4.97-4.03 9-9 9H15c-4.97 0-9-4.03-9-9V18c0-.064.002-.127.006-.19l.007-.093.013-.11.009-.063c.075-.492.269-.943.551-1.326L6.6 16.2l9-12C16.167 3.445 17.056 3 18 3zm6 18H12v39c0 1.539 1.158 2.807 2.65 2.98l.174.015L15 63h42c1.657 0 3-1.343 3-3V21zm-12 6c1.657 0 3 1.343 3 3 0 8.284-6.716 15-15 15-8.284 0-15-6.716-15-15 0-1.657 1.343-3 3-3s3 1.343 3 3c0 4.97 4.03 9 9 9 4.882 0 8.856-3.887 8.996-8.735L45 30c0-1.657 1.343-3 3-3zm4.501-18H19.499L15 15h42l-4.499-6z" transform="translate(-1248 -60) translate(1248 60)"/>
            </g>
        </g>
    </g>
</svg>
