<svg xmlns="http://www.w3.org/2000/svg" width="24" height="24" viewBox="0 0 72 72">
    <g fill="none" fill-rule="evenodd">
        <g>
            <g>
                <path d="M0 0H72V72H0z" transform="translate(-1248 -192) translate(1248 192)"/>
                <path fill="#2B73CC" fill-rule="nonzero" d="M54 3c.877 0 1.706.383 2.274 1.043l.126.157 9.013 12.018c.283.383.477.834.552 1.325l.016.119.014.162L66 18v42c0 4.882-3.887 8.856-8.735 8.996L57 69H15c-4.882 0-8.856-3.887-8.996-8.735L6 60l.001-42.096.018-.242.016-.118c.064-.422.216-.814.436-1.158L6.6 16.2l9-12c.526-.701 1.33-1.135 2.199-1.193L18 3h36z" transform="translate(-1248 -192) translate(1248 192)"/>
                <path fill="#FFF" fill-rule="nonzero" d="M52.501 9L19.499 9 15 15 57 15zM48 27c1.657 0 3 1.343 3 3 0 8.284-6.716 15-15 15-8.284 0-15-6.716-15-15 0-1.657 1.343-3 3-3s3 1.343 3 3c0 4.97 4.03 9 9 9 4.882 0 8.856-3.887 8.996-8.735L45 30c0-1.657 1.343-3 3-3z" transform="translate(-1248 -192) translate(1248 192)"/>
            </g>
        </g>
    </g>
</svg>
