<svg xmlns="http://www.w3.org/2000/svg" width="24" height="24" viewBox="0 0 72 72">
    <g fill="none" fill-rule="evenodd">
        <g>
            <g>
                <path d="M0 0H72V72H0z" transform="translate(-324 -456) translate(324 456)"/>
                <path fill="#2B73CC" fill-rule="nonzero" d="M57 9H15c-3.3 0-6 2.7-6 6v42c0 3.3 2.7 6 6 6h42c3.3 0 6-2.7 6-6V15c0-3.3-2.7-6-6-6zM32.13 48.87c-1.17 1.17-3.06 1.17-4.23 0L17.13 38.1c-1.17-1.17-1.17-3.06 0-4.23 1.17-1.17 3.06-1.17 4.23 0L30 42.51l20.64-20.64c1.17-1.17 3.06-1.17 4.23 0 1.17 1.17 1.17 3.06 0 4.23L32.13 48.87z" transform="translate(-324 -456) translate(324 456)"/>
            </g>
        </g>
    </g>
</svg>
