<svg xmlns="http://www.w3.org/2000/svg" width="24" height="24" viewBox="0 0 72 72">
    <g fill="none" fill-rule="evenodd">
        <g>
            <g>
                <path d="M0 0H72V72H0z" transform="translate(-60 -324) translate(60 324)"/>
                <path fill="#FFF" fill-rule="nonzero" d="M54 3c6.627 0 12 5.373 12 12s-5.373 12-12 12c-3.334 0-6.35-1.36-8.525-3.555L29.55 32.737C29.844 33.774 30 34.869 30 36c0 1.13-.156 2.224-.448 3.261l15.933 9.284C47.659 46.355 50.67 45 54 45c6.627 0 12 5.373 12 12s-5.373 12-12 12-12-5.373-12-12c0-1.136.158-2.235.453-3.276l-15.927-9.28C24.352 46.64 21.335 48 18 48c-6.627 0-12-5.373-12-12s5.373-12 12-12c3.334 0 6.35 1.36 8.525 3.555l15.924-9.292C42.156 17.226 42 16.131 42 15c0-6.627 5.373-12 12-12zm0 48c-2.081 0-3.915 1.06-4.99 2.668-.046.106-.098.21-.158.312-.062.108-.13.21-.204.306C48.234 55.1 48 56.023 48 57c0 3.314 2.686 6 6 6s6-2.686 6-6-2.686-6-6-6zM18 30c-3.314 0-6 2.686-6 6s2.686 6 6 6c2.161 0 4.056-1.143 5.112-2.857.02-.042.042-.083.066-.123l.086-.138c.469-.855.736-1.837.736-2.882 0-1.044-.267-2.026-.735-2.88-.03-.045-.059-.091-.086-.138l-.063-.119C22.06 31.145 20.164 30 18 30zM54 9c-3.314 0-6 2.686-6 6 0 1.044.267 2.026.735 2.88.03.045.059.091.086.138l.063.119C49.94 19.855 51.836 21 54 21c3.314 0 6-2.686 6-6s-2.686-6-6-6z" transform="translate(-60 -324) translate(60 324)"/>
            </g>
        </g>
    </g>
</svg>
