<svg xmlns="http://www.w3.org/2000/svg" xmlns:xlink="http://www.w3.org/1999/xlink" width="30" height="30" viewBox="0 0 30 30">
  <defs>
    <clipPath id="clip-Menu">
      <rect width="30" height="30"/>
    </clipPath>
  </defs>
  <g id="Menu" clip-path="url(#clip-Menu)">
    <g id="Group_1980" data-name="Group 1980" transform="translate(-32 -151)">
      <rect id="Rectangle_279" data-name="Rectangle 279" width="7" height="7" rx="2" transform="translate(37 156)" fill="#10b582"/>
      <rect id="Rectangle_282" data-name="Rectangle 282" width="7" height="7" rx="2" transform="translate(37 169)" fill="#10b582"/>
      <rect id="Rectangle_280" data-name="Rectangle 280" width="7" height="7" rx="2" transform="translate(50 156)" fill="#10b582"/>
      <rect id="Rectangle_281" data-name="Rectangle 281" width="7" height="7" rx="2" transform="translate(50 169)" fill="#10b582"/>
    </g>
  </g>
</svg>
