<svg xmlns="http://www.w3.org/2000/svg" xmlns:xlink="http://www.w3.org/1999/xlink" width="108" height="108" viewBox="0 0 108 108">
  <defs>
    <clipPath id="clip-rgh_1">
      <rect width="108" height="108"/>
    </clipPath>
  </defs>
  <g id="rgh_1" data-name="rgh – 1" clip-path="url(#clip-rgh_1)">
    <g id="Group_Copy" data-name="Group Copy" transform="translate(108)">
      <g id="Oval" transform="translate(-108)" fill="#ececec" stroke="#d7d7d7" stroke-miterlimit="10" stroke-width="4">
        <circle cx="54" cy="54" r="54" stroke="none"/>
        <circle cx="54" cy="54" r="52" fill="none"/>
      </g>
      <path id="Path" d="M-18.879.879a3,3,0,0,0-4.243,0,3,3,0,0,0-.135,4.1l.135.144L-7.243,21-23.121,36.879a3,3,0,0,0-.135,4.1l.135.144a3,3,0,0,0,4.1.135l.144-.135,18-18a3,3,0,0,0,.135-4.1l-.135-.144Z" transform="translate(-40 33)" fill="#babbbc"/>
    </g>
  </g>
</svg>
