<svg xmlns="http://www.w3.org/2000/svg" xmlns:xlink="http://www.w3.org/1999/xlink" width="24" height="42" viewBox="0 0 24 42">
  <defs>
    <clipPath id="clip-Arrow_2">
      <rect width="24" height="42"/>
    </clipPath>
  </defs>
  <g id="Arrow_2" data-name="Arrow 2" clip-path="url(#clip-Arrow_2)">
    <g id="Group_Copy" data-name="Group Copy" transform="translate(64 -33)">
      <path id="Path" d="M-18.879.879a3,3,0,0,0-4.243,0,3,3,0,0,0-.135,4.1l.135.144L-7.243,21-23.121,36.879a3,3,0,0,0-.135,4.1l.135.144a3,3,0,0,0,4.1.135l.144-.135,18-18a3,3,0,0,0,.135-4.1l-.135-.144Z" transform="translate(-40 33)" fill="#595c60"/>
    </g>
  </g>
</svg>
