<svg xmlns="http://www.w3.org/2000/svg" width="146" height="86" viewBox="0 0 440 260">
    <g fill="none" fill-rule="evenodd">
        <g>
            <g>
                <path d="M0 0H440V260H0z" transform="translate(-60 -636) translate(60 636)"/>
                <g transform="translate(-60 -636) translate(60 636) translate(4 8)">
                    <path fill="#E5EEF9" d="M238 72c7.732 0 14 6.268 14 14s-6.268 14-14 14h128c7.732 0 14 6.268 14 14s-6.268 14-14 14h44c7.732 0 14 6.268 14 14s-6.268 14-14 14h-38c-7.732 0-14 6.268-14 14s6.268 14 14 14h12c7.732 0 14 6.268 14 14s-6.268 14-14 14H280c-1.03 0-2.034-.111-3-.322-.966.21-1.97.322-3 .322H92c-7.732 0-14-6.268-14-14s6.268-14 14-14H14c-7.732 0-14-6.268-14-14s6.268-14 14-14h80c7.732 0 14-6.268 14-14s-6.268-14-14-14H44c-7.732 0-14-6.268-14-14s6.268-14 14-14h80c-7.732 0-14-6.268-14-14s6.268-14 14-14h114zm180 112c7.732 0 14 6.268 14 14s-6.268 14-14 14-14-6.268-14-14 6.268-14 14-14z"/>
                    <path fill="#E5EEF9" d="M148 58L282 58 270 76 286 88 144 88 162 76z"/>
                    <path stroke="#80ABE0" stroke-linecap="round" stroke-linejoin="round" stroke-width="4" d="M96 227h42.908m-68.652 0H84m272.256 0H362m-60 0h44.855"/>
                    <path fill="#FFF" stroke="#80ABE0" stroke-linecap="round" stroke-width="4" d="M142.012 172.43V92c0-3.314 2.72-6 6.074-6h138.959c2.184 0 3.955 1.79 3.955 4v146c0 4.418-3.541 8-7.91 8H149.922c-4.368 0-7.91-3.582-7.91-8v-38m0-8.205v-9.008"/>
                    <path stroke="#80ABE0" stroke-width="4" d="M146 86V62c0-2.21 1.607-4 3.59-4h132.82c1.983 0 3.59 1.79 3.59 4v24"/>
                    <circle cx="183" cy="121" r="7" fill="#FFF" stroke="#80ABE0" stroke-width="4"/>
                    <circle cx="249" cy="121" r="7" fill="#FFF" stroke="#80ABE0" stroke-width="4"/>
                    <path stroke="#80ABE0" stroke-linecap="round" stroke-width="4" d="M248 128c0 17.673-14.327 32-32 32-17.673 0-32-14.327-32-32M148.122 59.994l14.214 14.03c.786.776.794 2.042.018 2.829-.134.136-.287.252-.455.344L146 86h0M284.217 60.139l-13.603 13.874c-.774.789-.761 2.055.028 2.829.131.129.28.239.442.327L287.272 86h0"/>
                    <path stroke="#80ABE0" stroke-linecap="round" stroke-linejoin="round" stroke-width="4" d="M268.2 8.605L246 33.512M216 0v33.512M164 8.605l22.2 24.907"/>
                </g>
            </g>
        </g>
    </g>
</svg>
