<svg xmlns="http://www.w3.org/2000/svg" xmlns:xlink="http://www.w3.org/1999/xlink" width="742" height="408" viewBox="0 0 742 408">
  <defs>
    <linearGradient id="linear-gradient" x1="0.5" y1="-0.227" x2="0.5" y2="0.559" gradientUnits="objectBoundingBox">
      <stop offset="0" stop-color="#dee9f8"/>
      <stop offset="0.683" stop-color="#f7f9fc"/>
      <stop offset="1" stop-color="#f7f9fc"/>
    </linearGradient>
    <clipPath id="clip-Mobile_App">
      <rect width="742" height="408"/>
    </clipPath>
  </defs>
  <g id="Mobile_App" data-name="Mobile App" clip-path="url(#clip-Mobile_App)">
    <g id="Group_141" data-name="Group 141" transform="translate(-20679 1739)">
      <g id="Group_140" data-name="Group 140" transform="translate(20487 -2575.695)">
        <g id="Group_62" data-name="Group 62" transform="translate(-878.809 43.566)">
          <g id="Group_137" data-name="Group 137" transform="translate(1070.808 885.407)">
            <path id="Path_3633" data-name="Path 3633" d="M1835.2,926.975a5.154,5.154,0,0,0-10.184,1.593c.74,4.8,1.681,19.841-3.509,25.891a6.924,6.924,0,0,1-4.183,2.406l.473-28.644a7.45,7.45,0,1,0-14.9.062l1.346,54.358a6.955,6.955,0,0,1-4.36-2.429c-5.19-6.051-4.248-21.091-3.508-25.892a5.154,5.154,0,0,0-10.184-1.593c-.37,2.366-3.349,23.424,5.856,34.18a17.45,17.45,0,0,0,12.455,6.122l.587,23.66h11.246l.816-49.433a17.415,17.415,0,0,0,12.193-6.1C1838.551,950.4,1835.571,929.341,1835.2,926.975Z" transform="translate(-1181.915 -920.649)" fill="#bdbdbd"/>
            <path id="Path_3634" data-name="Path 3634" d="M1175.577,981.543a3.286,3.286,0,0,0-6.492,1.016c.472,3.06,1.072,12.647-2.237,16.5a4.419,4.419,0,0,1-2.667,1.534l.3-18.259a4.749,4.749,0,1,0-9.5.04l.858,34.651a4.429,4.429,0,0,1-2.779-1.548c-3.308-3.858-2.708-13.445-2.237-16.505a3.286,3.286,0,0,0-6.492-1.015c-.236,1.508-2.136,14.932,3.733,21.788a11.126,11.126,0,0,0,7.939,3.9l.374,15.082h7.17l.52-31.512a11.1,11.1,0,0,0,7.773-3.891C1177.712,996.475,1175.812,983.051,1175.577,981.543Z" transform="translate(-1082.165 -929.489)" fill="#bdbdbd"/>
            <ellipse id="Ellipse_22" data-name="Ellipse 22" cx="370.901" cy="131.306" rx="370.901" ry="131.306" transform="translate(0 52.415)" fill="url(#linear-gradient)"/>
          </g>
          <g id="Group_138" data-name="Group 138" transform="translate(1347.062 794.128)">
            <rect id="Rectangle_33" data-name="Rectangle 33" width="182.656" height="182.656" rx="12.45" transform="translate(0)" fill="#1081a0"/>
            <path id="Path_3635" data-name="Path 3635" d="M1596.734,943.282V887.946l46.371,28.38Z" transform="translate(-1523.329 -824.286)" fill="#eee"/>
          </g>
        </g>
      </g>
    </g>
  </g>
</svg>
