<svg xmlns="http://www.w3.org/2000/svg" width="120" height="86" viewBox="0 0 360 260">
    <g fill="none" fill-rule="evenodd">
        <g>
            <g>
                <path d="M0 0H360V260H0z" transform="translate(-940 -636) translate(940 636)"/>
                <g transform="translate(-940 -636) translate(940 636) translate(14 14)">
                    <path fill="#E5EEF9" d="M320 86c7.732 0 14 6.268 14 14s-6.268 14-14 14h-80c7.732 0 14 6.268 14 14s-6.268 14-14 14h44c7.732 0 14 6.268 14 14s-6.268 14-14 14h-20.348c-9.749 0-17.652 6.268-17.652 14 0 5.155 4 9.821 12 14 7.732 0 14 6.268 14 14s-6.268 14-14 14H92c-7.732 0-14-6.268-14-14s6.268-14 14-14H14c-7.732 0-14-6.268-14-14s6.268-14 14-14h80c7.732 0 14-6.268 14-14s-6.268-14-14-14H44c-7.732 0-14-6.268-14-14s6.268-14 14-14h80c-7.732 0-14-6.268-14-14s6.268-14 14-14h196zm0 56c7.732 0 14 6.268 14 14s-6.268 14-14 14-14-6.268-14-14 6.268-14 14-14z"/>
                    <path fill="#FFF" d="M142.237 174.613c-.156 1.107-.237 2.237-.237 3.387 0 13.255 10.745 24 24 24s24-10.745 24-24c0-1.15-.08-2.28-.237-3.387H248V228c0 3.314-2.686 6-6 6H90c-3.314 0-6-2.686-6-6v-53.387h58.237z"/>
                    <path fill="#FFF" d="M192 174c0 14.36-11.64 26-26 26s-26-11.64-26-26c0-.465.012-.928.036-1.387H84l19.12-56.535c.825-2.438 3.112-4.078 5.685-4.078h114.39c2.573 0 4.86 1.64 5.684 4.078L248 172.613h-56.036c.024.46.036.922.036 1.387z"/>
                    <path fill="#E5EEF9" d="M188.195 175.91c0 11.095-9.937 22.09-22.195 22.09-12.258 0-22.195-10.995-22.195-22.09 0-.36.01-2.718.03-3.072H102l16.323-39.687c.703-1.883 2.655-3.151 4.852-3.151h85.65c2.197 0 4.149 1.268 4.852 3.151L230 172.838h-41.836c.02.354.031 2.712.031 3.071z"/>
                    <path stroke="#80ABE0" stroke-linecap="round" stroke-linejoin="round" stroke-width="4" d="M108.805 112h114.39c2.573 0 4.86 1.64 5.684 4.078L248 172.613h0V226c0 3.314-2.686 6-6 6H90c-3.314 0-6-2.686-6-6v-53.387h0l19.12-56.535c.825-2.438 3.112-4.078 5.685-4.078z"/>
                    <path stroke="#80ABE0" stroke-linecap="round" stroke-linejoin="round" stroke-width="4" d="M97.147 172H102h-4.853zM112 172h25.49c3.752 0 3.752 2.637 3.752 4 0 13.255 10.993 24 24.553 24s24.552-10.745 24.552-24c0-1.363 0-4 3.752-4H244"/>
                    <circle cx="166" cy="48" r="48" fill="#FFF" stroke="#80ABE0" stroke-linecap="round" stroke-linejoin="round" stroke-width="4"/>
                    <path fill="#FFF" stroke="#80ABE0" stroke-linecap="round" stroke-linejoin="round" stroke-width="4" d="M166 26L166 70M176 34h-15c-3.866 0-7 3.134-7 7s3.134 7 7 7h10c3.866 0 7 3.134 7 7s-3.134 7-7 7h-17"/>
                </g>
            </g>
        </g>
    </g>
</svg>
